test/cpu.vcd
$date
	Sat Apr  8 12:46:41 2023
$end
$version
	Icarus Verilog
$end
$timescale
	1ps
$end
$scope module cpu_tb $end
$scope module cpu0 $end
$var wire 32 ! JumpAddress [31:0] $end
$var wire 1 " PCSrc $end
$var wire 1 # clock $end
$var wire 1 $ reset $end
$var wire 1 % write_pc $end
$var wire 1 & write_memwb $end
$var wire 1 ' write_ifid $end
$var wire 1 ( write_idex $end
$var wire 1 ) write_exmem $end
$var wire 32 * wRegData [31:0] $end
$var wire 32 + signExtend [31:0] $end
$var wire 7 , opcode [6:0] $end
$var wire 5 - instr_rs2 [4:0] $end
$var wire 5 . instr_rs1 [4:0] $end
$var wire 5 / instr_rd [4:0] $end
$var wire 32 0 instr [31:0] $end
$var wire 32 1 imm_u [31:0] $end
$var wire 32 2 imm_s [31:0] $end
$var wire 32 3 imm_j [31:0] $end
$var wire 32 4 imm_i [31:0] $end
$var wire 32 5 imm_b [31:0] $end
$var wire 7 6 funct7 [6:0] $end
$var wire 3 7 funct3 [2:0] $end
$var wire 32 8 bypassOutB [31:0] $end
$var wire 2 9 bypassB [1:0] $end
$var wire 2 : bypassA [1:0] $end
$var wire 1 ; bubble_memwb $end
$var wire 1 < bubble_ifid $end
$var wire 1 = bubble_idex $end
$var wire 1 > bubble_exmem $end
$var wire 1 ? Zero $end
$var wire 5 @ RegWriteAddr [4:0] $end
$var wire 1 A RegWrite $end
$var wire 1 B RegDst $end
$var wire 32 C PCplus4 [31:0] $end
$var wire 32 D PC_new [31:0] $end
$var wire 1 E MemWrite $end
$var wire 1 F MemToReg $end
$var wire 1 G MemRead $end
$var wire 1 H Jump $end
$var wire 32 I IDEX_rdB [31:0] $end
$var wire 32 J IDEX_rdA [31:0] $end
$var wire 32 K DMemOut [31:0] $end
$var wire 1 L BranchZ $end
$var wire 1 M BranchNZ $end
$var wire 32 N BranchALUOut [31:0] $end
$var wire 1 O Branch $end
$var wire 2 P ALUcntrl [1:0] $end
$var wire 1 Q ALUSrc $end
$var wire 32 R ALUOut [31:0] $end
$var wire 4 S ALUOp [3:0] $end
$var wire 32 T ALUInB [31:0] $end
$var wire 32 U ALUInA [31:0] $end
$var reg 32 V EXMEM_ALUOut [31:0] $end
$var reg 32 W EXMEM_BranchALUOut [31:0] $end
$var reg 1 X EXMEM_BranchNZ $end
$var reg 1 Y EXMEM_BranchZ $end
$var reg 1 Z EXMEM_MemRead $end
$var reg 1 [ EXMEM_MemToReg $end
$var reg 1 \ EXMEM_MemWrite $end
$var reg 32 ] EXMEM_MemWriteData [31:0] $end
$var reg 1 ^ EXMEM_RegWrite $end
$var reg 5 _ EXMEM_RegWriteAddr [4:0] $end
$var reg 1 ` EXMEM_Zero $end
$var reg 1 a IDEX_ALUSrc $end
$var reg 2 b IDEX_ALUcntrl [1:0] $end
$var reg 1 c IDEX_BranchNZ $end
$var reg 1 d IDEX_BranchZ $end
$var reg 1 e IDEX_MemRead $end
$var reg 1 f IDEX_MemToReg $end
$var reg 1 g IDEX_MemWrite $end
$var reg 32 h IDEX_PCplus4 [31:0] $end
$var reg 1 i IDEX_RegDst $end
$var reg 1 j IDEX_RegWrite $end
$var reg 3 k IDEX_funct3 [2:0] $end
$var reg 7 l IDEX_funct7 [6:0] $end
$var reg 5 m IDEX_instr_rd [4:0] $end
$var reg 5 n IDEX_instr_rs1 [4:0] $end
$var reg 5 o IDEX_instr_rs2 [4:0] $end
$var reg 32 p IDEX_signExtend [31:0] $end
$var reg 32 q IFID_PCplus4 [31:0] $end
$var reg 32 r IFID_instr [31:0] $end
$var reg 32 s MEMWB_ALUOut [31:0] $end
$var reg 32 t MEMWB_DMemOut [31:0] $end
$var reg 1 u MEMWB_MemToReg $end
$var reg 1 v MEMWB_RegWrite $end
$var reg 5 w MEMWB_RegWriteAddr [4:0] $end
$var reg 32 x PC [31:0] $end
$scope module branch_alu $end
$var wire 32 y inA [31:0] $end
$var wire 32 z inB [31:0] $end
$var wire 4 { op [3:0] $end
$var wire 1 | zero $end
$var wire 32 } out [31:0] $end
$upscope $end
$scope module control_alu $end
$var wire 2 ~ ALUcntrl [1:0] $end
$var wire 3 !" funct3 [2:0] $end
$var wire 7 "" funct7 [6:0] $end
$var reg 4 #" ALUOp [3:0] $end
$upscope $end
$scope module control_branch $end
$var wire 3 $" funct3 [2:0] $end
$var wire 1 O Branch $end
$var reg 1 M BranchNZ $end
$var reg 1 L BranchZ $end
$upscope $end
$scope module control_bypass_ex $end
$var wire 5 %" exmem_rd [4:0] $end
$var wire 1 ^ exmem_regwrite $end
$var wire 5 &" idex_rs [4:0] $end
$var wire 5 '" idex_rt [4:0] $end
$var wire 5 (" memwb_rd [4:0] $end
$var wire 1 v memwb_regwrite $end
$var reg 2 )" bypassA [1:0] $end
$var reg 2 *" bypassB [1:0] $end
$upscope $end
$scope module control_main $end
$var wire 7 +" opcode [6:0] $end
$var reg 1 Q ALUSrc $end
$var reg 2 ," ALUcntrl [1:0] $end
$var reg 1 O Branch $end
$var reg 1 H Jump $end
$var reg 1 G MemRead $end
$var reg 1 F MemToReg $end
$var reg 1 E MemWrite $end
$var reg 1 B RegDst $end
$var reg 1 A RegWrite $end
$upscope $end
$scope module control_stall_id $end
$var wire 1 H Jump $end
$var wire 1 " PCSrc $end
$var wire 1 e idex_memread $end
$var wire 5 -" idex_rt [4:0] $end
$var wire 5 ." ifid_rs [4:0] $end
$var wire 5 /" ifid_rt [4:0] $end
$var reg 1 > bubble_exmem $end
$var reg 1 = bubble_idex $end
$var reg 1 < bubble_ifid $end
$var reg 1 ; bubble_memwb $end
$var reg 1 ) write_exmem $end
$var reg 1 ( write_idex $end
$var reg 1 ' write_ifid $end
$var reg 1 & write_memwb $end
$var reg 1 % write_pc $end
$upscope $end
$scope module cpu_DMem $end
$var wire 32 0" addr [31:0] $end
$var wire 1 # clock $end
$var wire 32 1" din [31:0] $end
$var wire 32 2" dout [31:0] $end
$var wire 1 Z ren $end
$var wire 1 $ reset $end
$var wire 1 \ wen $end
$upscope $end
$scope module cpu_IMem $end
$var wire 32 3" addr [31:0] $end
$var wire 1 # clock $end
$var wire 32 4" din [31:0] $end
$var wire 32 5" dout [31:0] $end
$var wire 1 ' ren $end
$var wire 1 $ reset $end
$var wire 1 6" wen $end
$upscope $end
$scope module cpu_alu $end
$var wire 32 7" inA [31:0] $end
$var wire 32 8" inB [31:0] $end
$var wire 4 9" op [3:0] $end
$var wire 1 ? zero $end
$var wire 32 :" out [31:0] $end
$upscope $end
$scope module cpu_regs $end
$var wire 1 # clock $end
$var wire 5 ;" raA [4:0] $end
$var wire 5 <" raB [4:0] $end
$var wire 1 $ reset $end
$var wire 5 =" wa [4:0] $end
$var wire 32 >" wd [31:0] $end
$var wire 1 v wen $end
$var reg 32 ?" rdA [31:0] $end
$var reg 32 @" rdB [31:0] $end
$var integer 32 A" i [31:0] $end
$upscope $end
$scope module signExtendUnit $end
$var wire 32 B" imm_b [31:0] $end
$var wire 32 C" imm_i [31:0] $end
$var wire 32 D" imm_j [31:0] $end
$var wire 32 E" imm_s [31:0] $end
$var wire 32 F" imm_u [31:0] $end
$var wire 7 G" opcode [6:0] $end
$var reg 32 H" out [31:0] $end
$upscope $end
$upscope $end
$upscope $end
$enddefinitions $end
#0
$dumpvars
b0 H"
b0 G"
b0 F"
b0 E"
b0 D"
b0 C"
b0 B"
b100000 A"
b0 @"
b0 ?"
b0 >"
b0 ="
b0 <"
b0 ;"
bx :"
b0 9"
b0 8"
b0 7"
06"
bx 5"
b0 4"
b111111111111111111111111111111 3"
bx 2"
b0 1"
b0 0"
b0 /"
b0 ."
b0 -"
b0 ,"
b0 +"
b0 *"
b0 )"
b0 ("
b0 '"
b0 &"
b0 %"
b0 $"
b0 #"
b0 ""
b0 !"
b0 ~
bx }
x|
b0 {
b0 z
b0 y
b11111111111111111111111111111111 x
b0 w
0v
0u
b0 t
b0 s
b0 r
b0 q
b0 p
b0 o
b0 n
b0 m
b0 l
b0 k
0j
0i
b0 h
0g
0f
0e
0d
0c
b0 b
0a
0`
b0 _
0^
b0 ]
0\
0[
0Z
0Y
0X
b0 W
b0 V
b0 U
b0 T
b0 S
bx R
0Q
b0 P
0O
bx N
0M
0L
bx K
b0 J
b0 I
0H
0G
0F
0E
b11 D
b11 C
0B
0A
b0 @
x?
0>
0=
0<
0;
b0 :
b0 9
b0 8
b0 7
b0 6
b0 5
b0 4
b0 3
b0 2
b0 1
bx 0
b0 /
b0 .
b0 -
b0 ,
b0 +
b0 *
1)
1(
1'
1&
1%
0$
0#
0"
bz !
$end
#1500
b0 R
b0 :"
0?
b0 N
b0 }
0|
#5000
b100000 A"
1#
#10000
0#
#15000
b100000 A"
1#
#20000
0#
#25000
b100000 A"
1#
#30000
0#
#32300
1$
#35000
b100 D
b1100010000000010110011 0
b1100010000000010110011 5"
bx0 3
bx0 D"
b0 3"
bx ,
bx +"
bx G"
bx 7
bx $"
bx 6
bx .
bx ."
bx ;"
bx -
bx /"
bx <"
bx /
bx 4
bx C"
bx 2
bx E"
bx0 5
bx0 B"
bx000000000000 1
bx000000000000 F"
b100 C
b0 x
bx r
b11 q
bx t
1#
#40000
0#
#45000
1A
1B
b10000100000000010 3
b10000100000000010 D"
b1000 D
b10000011000000100110011 0
b10000011000000100110011 5"
bx T
bx 8"
bx @
b110011 ,
b110011 +"
b110011 G"
b0 7
b0 $"
b0 6
b10 .
b10 ."
b10 ;"
b11 -
b11 /"
b11 <"
b1 /
b11 4
b11 C"
b1 2
b1 E"
b100000000000 5
b100000000000 B"
b1100010000000000000000 1
b1100010000000000000000 F"
b1 3"
bx 8
bx U
bx 7"
bx l
bx ""
bx k
bx !"
b11 h
b11 y
bx o
bx '"
bx -"
bx n
bx &"
bx m
b1100010000000010110011 r
b100 q
b1000 C
b100 x
bx I
bx @"
bx J
bx ?"
1#
#46500
bx R
bx :"
b11 N
b11 }
#50000
0#
#55000
b11 T
b11 8"
b1100 D
b10100100000000110110011 0
b10100100000000110110011 5"
b11000000000000100 3
b11000000000000100 D"
b11 8
b10 U
b10 7"
b10 3"
b11 .
b11 ."
b11 ;"
b100 -
b100 /"
b100 <"
b10 /
b100 4
b100 C"
b10 2
b10 E"
b10 5
b10 B"
b10000011000000000000000 1
b10000011000000000000000 F"
b1 @
b11 I
b11 @"
b10 J
b10 ?"
b1100 C
b1000 x
b10000011000000100110011 r
b1000 q
b0 l
b0 ""
b0 k
b0 !"
b100 h
b100 y
1j
1i
b11 o
b11 '"
b11 -"
b10 n
b10 &"
b1 m
bx ]
bx 1"
bx _
bx %"
b11 W
bx V
bx 0"
1#
#56500
b101 R
b101 :"
b100 N
b100 }
#60000
0#
#65000
b100000100000000100 3
b100000100000000100 D"
b10000 D
b11000101000001000110011 0
b11000101000001000110011 5"
b100 T
b100 8"
bx *
bx >"
b10 @
b100 .
b100 ."
b100 ;"
b101 -
b101 /"
b101 <"
b11 /
b101 4
b101 C"
b11 2
b11 E"
b100000000010 5
b100000000010 B"
b10100100000000000000000 1
b10100100000000000000000 F"
b11 3"
b100 8
b11 U
b11 7"
bx w
bx ("
bx ="
bx s
1^
b11 ]
b11 1"
b1 _
b1 %"
b100 W
b101 V
b101 0"
b1000 h
b1000 y
b100 o
b100 '"
b100 -"
b11 n
b11 &"
b10 m
b10100100000000110110011 r
b1100 q
b10000 C
b1100 x
b100 I
b100 @"
b11 J
b11 ?"
1#
#66500
b111 R
b111 :"
b1000 N
b1000 }
#70000
0#
#75000
b101 T
b101 8"
b10100 D
b11100110000001010110011 0
b11100110000001010110011 5"
b101000000000000110 3
b101000000000000110 D"
b101 8
b100 U
b100 7"
b100 3"
b101 .
b101 ."
b101 ;"
b110 -
b110 /"
b110 <"
b100 /
b110 4
b110 C"
b100 2
b100 E"
b100 5
b100 B"
b11000101000000000000000 1
b11000101000000000000000 F"
b11 @
b101 *
b101 >"
b101 I
b101 @"
b100 J
b100 ?"
b10100 C
b10000 x
b11000101000001000110011 r
b10000 q
b1100 h
b1100 y
b101 o
b101 '"
b101 -"
b100 n
b100 &"
b11 m
b100 ]
b100 1"
b10 _
b10 %"
b1000 W
b111 V
b111 0"
1v
b1 w
b1 ("
b1 ="
b101 s
1#
#76500
b1001 R
b1001 :"
b1100 N
b1100 }
#80000
0#
#85000
b110000100000000110 3
b110000100000000110 D"
b11000 D
bx 0
bx 5"
b110 T
b110 8"
b111 *
b111 >"
b100 @
b110 .
b110 ."
b110 ;"
b111 -
b111 /"
b111 <"
b101 /
b111 4
b111 C"
b101 2
b101 E"
b100000000100 5
b100000000100 B"
b11100110000000000000000 1
b11100110000000000000000 F"
b101 3"
b110 8
b101 U
b101 7"
b10 w
b10 ("
b10 ="
b111 s
b101 ]
b101 1"
b11 _
b11 %"
b1100 W
b1001 V
b1001 0"
b10000 h
b10000 y
b110 o
b110 '"
b110 -"
b101 n
b101 &"
b100 m
b11100110000001010110011 r
b10100 q
b11000 C
b10100 x
b110 I
b110 @"
b101 J
b101 ?"
1#
#86500
b1011 R
b1011 :"
b10000 N
b10000 }
#90000
0#
#95000
b111 T
b111 8"
b11100 D
0A
0B
bx0 3
bx0 D"
b111 8
b110 U
b110 7"
b110 3"
bx ,
bx +"
bx G"
bx 7
bx $"
bx 6
bx .
bx ."
bx ;"
bx -
bx /"
bx <"
bx /
bx 4
bx C"
bx 2
bx E"
bx0 5
bx0 B"
bx000000000000 1
bx000000000000 F"
b101 @
b1001 *
b1001 >"
b111 I
b111 @"
b110 J
b110 ?"
b11100 C
b11000 x
bx r
b11000 q
b10100 h
b10100 y
b111 o
b111 '"
b111 -"
b110 n
b110 &"
b101 m
b110 ]
b110 1"
b100 _
b100 %"
b10000 W
b1011 V
b1011 0"
b11 w
b11 ("
b11 ="
b1001 s
1#
#96500
b1101 R
b1101 :"
b10100 N
b10100 }
#100000
0#
#105000
b100000 D
bx T
bx 8"
b1011 *
b1011 >"
bx @
b111 3"
bx 8
bx U
bx 7"
b100 w
b100 ("
b100 ="
b1011 s
b111 ]
b111 1"
b101 _
b101 %"
b10100 W
b1101 V
b1101 0"
bx l
bx ""
bx k
bx !"
b11000 h
b11000 y
0j
0i
bx o
bx '"
bx -"
bx n
bx &"
bx m
b11100 q
b100000 C
b11100 x
bx I
bx @"
bx J
bx ?"
1#
#106500
bx R
bx :"
b11000 N
b11000 }
#110000
0#
#115000
b100100 D
b1000 3"
b1101 *
b1101 >"
b100100 C
b100000 x
b100000 q
b11100 h
b11100 y
0^
bx ]
bx 1"
bx _
bx %"
b11000 W
bx V
bx 0"
b101 w
b101 ("
b101 ="
b1101 s
1#
#116500
b11100 N
b11100 }
#120000
0#
#125000
b101000 D
bx *
bx >"
b1001 3"
0v
bx w
bx ("
bx ="
bx s
b11100 W
b100000 h
b100000 y
b100100 q
b101000 C
b100100 x
1#
#126500
b100000 N
b100000 }
#130000
0#
#135000
b101100 D
b1010 3"
b101100 C
b101000 x
b101000 q
b100100 h
b100100 y
b100000 W
1#
#136500
b100100 N
b100100 }
#140000
0#
#142300
b0 3
b0 D"
b11 D
b0 T
b0 8"
b0 *
b0 >"
b0 @
b0 ,
b0 +"
b0 G"
b0 7
b0 $"
b0 6
b0 .
b0 ."
b0 ;"
b0 -
b0 /"
b0 <"
b0 /
b0 4
b0 C"
b0 2
b0 E"
b0 5
b0 B"
b0 1
b0 F"
b111111111111111111111111111111 3"
b0 8
b0 U
b0 7"
b0 w
b0 ("
b0 ="
b0 s
b0 t
b0 ]
b0 1"
b0 _
b0 %"
b0 W
b0 V
b0 0"
b0 l
b0 ""
b0 k
b0 !"
b0 h
b0 y
b0 o
b0 '"
b0 -"
b0 n
b0 &"
b0 m
b0 r
b0 q
b11 C
b11111111111111111111111111111111 x
b0 I
b0 @"
b0 J
b0 ?"
b100000 A"
0$
#143800
b0 R
b0 :"
b0 N
b0 }
#145000
b100000 A"
1#
#150000
0#
#155000
b100000 A"
1#
#160000
0#
#165000
b100000 A"
1#
#170000
0#
#174600
1$
#175000
bx0 3
bx0 D"
b100 D
b1100010000000010110011 0
b1100010000000010110011 5"
bx ,
bx +"
bx G"
bx 7
bx $"
bx 6
bx .
bx ."
bx ;"
bx -
bx /"
bx <"
bx /
bx 4
bx C"
bx 2
bx E"
bx0 5
bx0 B"
bx000000000000 1
bx000000000000 F"
b0 3"
bx t
bx r
b11 q
b100 C
b0 x
1#
#180000
0#
#185000
bx T
bx 8"
b1000 D
b10000011000000100110011 0
b10000011000000100110011 5"
1A
1B
b10000100000000010 3
b10000100000000010 D"
bx 8
bx U
bx 7"
b1 3"
b110011 ,
b110011 +"
b110011 G"
b0 7
b0 $"
b0 6
b10 .
b10 ."
b10 ;"
b11 -
b11 /"
b11 <"
b1 /
b11 4
b11 C"
b1 2
b1 E"
b100000000000 5
b100000000000 B"
b1100010000000000000000 1
b1100010000000000000000 F"
bx @
bx I
bx @"
bx J
bx ?"
b1000 C
b100 x
b1100010000000010110011 r
b100 q
bx l
bx ""
bx k
bx !"
b11 h
b11 y
bx o
bx '"
bx -"
bx n
bx &"
bx m
1#
#186500
bx R
bx :"
b11 N
b11 }
#190000
0#
#195000
b11000000000000100 3
b11000000000000100 D"
b1100 D
b10100010000000110110011 0
b10100010000000110110011 5"
b11 T
b11 8"
b1 @
b11 .
b11 ."
b11 ;"
b100 -
b100 /"
b100 <"
b10 /
b100 4
b100 C"
b10 2
b10 E"
b10 5
b10 B"
b10000011000000000000000 1
b10000011000000000000000 F"
b10 3"
b11 8
b10 U
b10 7"
bx ]
bx 1"
bx _
bx %"
b11 W
bx V
bx 0"
b0 l
b0 ""
b0 k
b0 !"
b100 h
b100 y
1j
1i
b11 o
b11 '"
b11 -"
b10 n
b10 &"
b1 m
b10000011000000100110011 r
b1000 q
b1100 C
b1000 x
b11 I
b11 @"
b10 J
b10 ?"
1#
#196500
b101 R
b101 :"
b100 N
b100 }
#200000
0#
#205000
b100 T
b100 8"
b10000 D
b11000101000001000110011 0
b11000101000001000110011 5"
b10000100000000100 3
b10000100000000100 D"
b100 8
b11 U
b11 7"
b11 3"
b10 .
b10 ."
b10 ;"
b101 -
b101 /"
b101 <"
b11 /
b101 4
b101 C"
b11 2
b11 E"
b100000000010 5
b100000000010 B"
b10100010000000000000000 1
b10100010000000000000000 F"
b10 @
bx *
bx >"
b100 I
b100 @"
b11 J
b11 ?"
b10000 C
b1100 x
b10100010000000110110011 r
b1100 q
b1000 h
b1000 y
b100 o
b100 '"
b100 -"
b11 n
b11 &"
b10 m
1^
b11 ]
b11 1"
b1 _
b1 %"
b100 W
b101 V
b101 0"
bx w
bx ("
bx ="
bx s
1#
#206500
b111 R
b111 :"
b1000 N
b1000 }
#210000
0#
#215000
b10 :
b10 )"
b101000000000000110 3
b101000000000000110 D"
b10100 D
b11100110000001010110011 0
b11100110000001010110011 5"
b101 T
b101 8"
b101 *
b101 >"
b11 @
b101 .
b101 ."
b101 ;"
b110 -
b110 /"
b110 <"
b100 /
b110 4
b110 C"
b100 2
b100 E"
b100 5
b100 B"
b11000101000000000000000 1
b11000101000000000000000 F"
b100 3"
b101 8
b111 U
b111 7"
1v
b1 w
b1 ("
b1 ="
b101 s
b100 ]
b100 1"
b10 _
b10 %"
b1000 W
b111 V
b111 0"
b1100 h
b1100 y
b101 o
b101 '"
b101 -"
b10 n
b10 &"
b11 m
b11000101000001000110011 r
b10000 q
b10100 C
b10000 x
b101 I
b101 @"
b10 J
b10 ?"
1#
#216500
b1100 R
b1100 :"
b1100 N
b1100 }
#220000
0#
#225000
b110 T
b110 8"
b11000 D
bx 0
bx 5"
b110000100000000110 3
b110000100000000110 D"
b101 U
b101 7"
b110 8
b101 3"
b110 .
b110 ."
b110 ;"
b111 -
b111 /"
b111 <"
b101 /
b111 4
b111 C"
b101 2
b101 E"
b100000000100 5
b100000000100 B"
b11100110000000000000000 1
b11100110000000000000000 F"
b100 @
b0 :
b0 )"
b111 *
b111 >"
b110 I
b110 @"
b101 J
b101 ?"
b11000 C
b10100 x
b11100110000001010110011 r
b10100 q
b10000 h
b10000 y
b110 o
b110 '"
b110 -"
b101 n
b101 &"
b100 m
b101 ]
b101 1"
b11 _
b11 %"
b1100 W
b1100 V
b1100 0"
b10 w
b10 ("
b10 ="
b111 s
1#
#226500
b1011 R
b1011 :"
b10000 N
b10000 }
#230000
0#
#235000
0A
0B
bx0 3
bx0 D"
b11100 D
b111 T
b111 8"
b1100 *
b1100 >"
b101 @
bx ,
bx +"
bx G"
bx 7
bx $"
bx 6
bx .
bx ."
bx ;"
bx -
bx /"
bx <"
bx /
bx 4
bx C"
bx 2
bx E"
bx0 5
bx0 B"
bx000000000000 1
bx000000000000 F"
b110 3"
b111 8
b110 U
b110 7"
b11 w
b11 ("
b11 ="
b1100 s
b110 ]
b110 1"
b100 _
b100 %"
b10000 W
b1011 V
b1011 0"
b10100 h
b10100 y
b111 o
b111 '"
b111 -"
b110 n
b110 &"
b101 m
bx r
b11000 q
b11100 C
b11000 x
b111 I
b111 @"
b110 J
b110 ?"
1#
#236500
b1101 R
b1101 :"
b10100 N
b10100 }
#240000
0#
#245000
bx T
bx 8"
b100000 D
bx 8
bx U
bx 7"
b111 3"
bx @
b1011 *
b1011 >"
bx I
bx @"
bx J
bx ?"
b100000 C
b11100 x
b11100 q
bx l
bx ""
bx k
bx !"
b11000 h
b11000 y
0j
0i
bx o
bx '"
bx -"
bx n
bx &"
bx m
b111 ]
b111 1"
b101 _
b101 %"
b10100 W
b1101 V
b1101 0"
b100 w
b100 ("
b100 ="
b1011 s
1#
#246500
bx R
bx :"
b11000 N
b11000 }
#250000
0#
#255000
b100100 D
b1101 *
b1101 >"
b1000 3"
b101 w
b101 ("
b101 ="
b1101 s
0^
bx ]
bx 1"
bx _
bx %"
b11000 W
bx V
bx 0"
b11100 h
b11100 y
b100000 q
b100100 C
b100000 x
1#
#256500
b11100 N
b11100 }
#260000
0#
#265000
b101000 D
b1001 3"
bx *
bx >"
b101000 C
b100100 x
b100100 q
b100000 h
b100000 y
b11100 W
0v
bx w
bx ("
bx ="
bx s
1#
#266500
b100000 N
b100000 }
#270000
0#
#275000
b101100 D
b1010 3"
b100000 W
b100100 h
b100100 y
b101000 q
b101100 C
b101000 x
1#
#276500
b100100 N
b100100 }
#280000
0#
#284600
b0 T
b0 8"
b11 D
b0 3
b0 D"
b0 8
b0 U
b0 7"
b111111111111111111111111111111 3"
b0 ,
b0 +"
b0 G"
b0 7
b0 $"
b0 6
b0 .
b0 ."
b0 ;"
b0 -
b0 /"
b0 <"
b0 /
b0 4
b0 C"
b0 2
b0 E"
b0 5
b0 B"
b0 1
b0 F"
b0 @
b0 *
b0 >"
b0 I
b0 @"
b0 J
b0 ?"
b11 C
b11111111111111111111111111111111 x
b0 r
b0 q
b0 l
b0 ""
b0 k
b0 !"
b0 h
b0 y
b0 o
b0 '"
b0 -"
b0 n
b0 &"
b0 m
b0 ]
b0 1"
b0 _
b0 %"
b0 W
b0 V
b0 0"
b0 w
b0 ("
b0 ="
b0 s
b0 t
b100000 A"
0$
#285000
b100000 A"
1#
#286100
b0 R
b0 :"
b0 N
b0 }
#290000
0#
#295000
b100000 A"
1#
#300000
0#
#305000
b100000 A"
1#
#310000
0#
#315000
b100000 A"
1#
#316900
1$
#320000
0#
#325000
bx0 3
bx0 D"
b100 D
b1100010000000010110011 0
b1100010000000010110011 5"
bx ,
bx +"
bx G"
bx 7
bx $"
bx 6
bx .
bx ."
bx ;"
bx -
bx /"
bx <"
bx /
bx 4
bx C"
bx 2
bx E"
bx0 5
bx0 B"
bx000000000000 1
bx000000000000 F"
b0 3"
bx t
bx r
b11 q
b100 C
b0 x
1#
#330000
0#
#335000
bx T
bx 8"
b1000 D
b10000011000000100110011 0
b10000011000000100110011 5"
1A
1B
b10000100000000010 3
b10000100000000010 D"
bx 8
bx U
bx 7"
b1 3"
b110011 ,
b110011 +"
b110011 G"
b0 7
b0 $"
b0 6
b10 .
b10 ."
b10 ;"
b11 -
b11 /"
b11 <"
b1 /
b11 4
b11 C"
b1 2
b1 E"
b100000000000 5
b100000000000 B"
b1100010000000000000000 1
b1100010000000000000000 F"
bx @
bx I
bx @"
bx J
bx ?"
b1000 C
b100 x
b1100010000000010110011 r
b100 q
bx l
bx ""
bx k
bx !"
b11 h
b11 y
bx o
bx '"
bx -"
bx n
bx &"
bx m
1#
#336500
bx R
bx :"
b11 N
b11 }
#340000
0#
#345000
b11000000000000100 3
b11000000000000100 D"
b1100 D
b1000100000000110110011 0
b1000100000000110110011 5"
b11 T
b11 8"
b1 @
b11 .
b11 ."
b11 ;"
b100 -
b100 /"
b100 <"
b10 /
b100 4
b100 C"
b10 2
b10 E"
b10 5
b10 B"
b10000011000000000000000 1
b10000011000000000000000 F"
b10 3"
b11 8
b10 U
b10 7"
bx ]
bx 1"
bx _
bx %"
b11 W
bx V
bx 0"
b0 l
b0 ""
b0 k
b0 !"
b100 h
b100 y
1j
1i
b11 o
b11 '"
b11 -"
b10 n
b10 &"
b1 m
b10000011000000100110011 r
b1000 q
b1100 C
b1000 x
b11 I
b11 @"
b10 J
b10 ?"
1#
#346500
b101 R
b101 :"
b100 N
b100 }
#350000
0#
#355000
b100 T
b100 8"
b10000 D
b11000101000001000110011 0
b11000101000001000110011 5"
b100000000000000010 3
b100000000000000010 D"
b100 8
b11 U
b11 7"
b11 3"
b100 .
b100 ."
b100 ;"
b10 -
b10 /"
b10 <"
b11 /
b10 4
b10 C"
b11 2
b11 E"
b100000000010 5
b100000000010 B"
b1000100000000000000000 1
b1000100000000000000000 F"
b10 @
bx *
bx >"
b100 I
b100 @"
b11 J
b11 ?"
b10000 C
b1100 x
b1000100000000110110011 r
b1100 q
b1000 h
b1000 y
b100 o
b100 '"
b100 -"
b11 n
b11 &"
b10 m
1^
b11 ]
b11 1"
b1 _
b1 %"
b100 W
b101 V
b101 0"
bx w
bx ("
bx ="
bx s
1#
#356500
b111 R
b111 :"
b1000 N
b1000 }
#360000
0#
#365000
b10 9
b10 *"
b101000000000000110 3
b101000000000000110 D"
b10100 D
b11100110000001010110011 0
b11100110000001010110011 5"
b111 T
b111 8"
b101 *
b101 >"
b11 @
b101 .
b101 ."
b101 ;"
b110 -
b110 /"
b110 <"
b100 /
b110 4
b110 C"
b100 2
b100 E"
b100 5
b100 B"
b11000101000000000000000 1
b11000101000000000000000 F"
b100 3"
b111 8
b100 U
b100 7"
1v
b1 w
b1 ("
b1 ="
b101 s
b100 ]
b100 1"
b10 _
b10 %"
b1000 W
b111 V
b111 0"
b1100 h
b1100 y
b10 o
b10 '"
b10 -"
b100 n
b100 &"
b11 m
b11000101000001000110011 r
b10000 q
b10100 C
b10000 x
b10 I
b10 @"
b100 J
b100 ?"
1#
#366500
b1011 R
b1011 :"
b1100 N
b1100 }
#370000
0#
#375000
b110 T
b110 8"
b11000 D
bx 0
bx 5"
b110000100000000110 3
b110000100000000110 D"
b110 8
b101 U
b101 7"
b101 3"
b110 .
b110 ."
b110 ;"
b111 -
b111 /"
b111 <"
b101 /
b111 4
b111 C"
b101 2
b101 E"
b100000000100 5
b100000000100 B"
b11100110000000000000000 1
b11100110000000000000000 F"
b100 @
b0 9
b0 *"
b111 *
b111 >"
b110 I
b110 @"
b101 J
b101 ?"
b11000 C
b10100 x
b11100110000001010110011 r
b10100 q
b10000 h
b10000 y
b110 o
b110 '"
b110 -"
b101 n
b101 &"
b100 m
b111 ]
b111 1"
b11 _
b11 %"
b1100 W
b1011 V
b1011 0"
b10 w
b10 ("
b10 ="
b111 s
1#
#376500
b10000 N
b10000 }
#380000
0#
#385000
0A
0B
bx0 3
bx0 D"
b11100 D
b111 T
b111 8"
b1011 *
b1011 >"
b101 @
bx ,
bx +"
bx G"
bx 7
bx $"
bx 6
bx .
bx ."
bx ;"
bx -
bx /"
bx <"
bx /
bx 4
bx C"
bx 2
bx E"
bx0 5
bx0 B"
bx000000000000 1
bx000000000000 F"
b110 3"
b111 8
b110 U
b110 7"
b11 w
b11 ("
b11 ="
b1011 s
b110 ]
b110 1"
b100 _
b100 %"
b10000 W
b10100 h
b10100 y
b111 o
b111 '"
b111 -"
b110 n
b110 &"
b101 m
bx r
b11000 q
b11100 C
b11000 x
b111 I
b111 @"
b110 J
b110 ?"
1#
#386500
b1101 R
b1101 :"
b10100 N
b10100 }
#390000
0#
#395000
bx T
bx 8"
b100000 D
bx 8
bx U
bx 7"
b111 3"
bx @
bx I
bx @"
bx J
bx ?"
b100000 C
b11100 x
b11100 q
bx l
bx ""
bx k
bx !"
b11000 h
b11000 y
0j
0i
bx o
bx '"
bx -"
bx n
bx &"
bx m
b111 ]
b111 1"
b101 _
b101 %"
b10100 W
b1101 V
b1101 0"
b100 w
b100 ("
b100 ="
1#
#396500
bx R
bx :"
b11000 N
b11000 }
#400000
0#
#405000
b100100 D
b1101 *
b1101 >"
b1000 3"
b101 w
b101 ("
b101 ="
b1101 s
0^
bx ]
bx 1"
bx _
bx %"
b11000 W
bx V
bx 0"
b11100 h
b11100 y
b100000 q
b100100 C
b100000 x
1#
#406500
b11100 N
b11100 }
#410000
0#
#415000
b101000 D
b1001 3"
bx *
bx >"
b101000 C
b100100 x
b100100 q
b100000 h
b100000 y
b11100 W
0v
bx w
bx ("
bx ="
bx s
1#
#416500
b100000 N
b100000 }
#420000
0#
#425000
b101100 D
b1010 3"
b100000 W
b100100 h
b100100 y
b101000 q
b101100 C
b101000 x
1#
#426500
b100100 N
b100100 }
