testbench/add.vcd
$version Generated by VerilatedVcd $end
$date Wed May 31 16:03:13 2023
 $end
$timescale   1ps $end

 $scope module TOP $end
  $var wire 32 P! MemAddr [31:0] $end
  $var wire  1 O! MemWriteEnable $end
  $var wire 32 Q! WriteData [31:0] $end
  $var wire  1 M! clock $end
  $var wire  1 N! reset $end
  $scope module toplevel $end
   $var wire 32 P! MemAddr [31:0] $end
   $var wire  1 O! MemWriteEnable $end
   $var wire 32 Q! WriteData [31:0] $end
   $var wire  1 M! clock $end
   $var wire  1 N! reset $end
   $scope module cpu $end
    $var wire 32 V ALUInA [31:0] $end
    $var wire 32 W ALUInB [31:0] $end
    $var wire  4 x ALUOp [3:0] $end
    $var wire 32 X ALUOut [31:0] $end
    $var wire  1 c ALUSrc $end
    $var wire  3 r ALUcntrl [2:0] $end
    $var wire  1 h Branch $end
    $var wire 32 Y BranchALUOut [31:0] $end
    $var wire 32 - BranchInA [31:0] $end
    $var wire 32 S! DMemOut [31:0] $end
    $var wire 32 F EXMEM_ALUOut [31:0] $end
    $var wire  1 j EXMEM_Branch $end
    $var wire 32 G EXMEM_BranchALUOut [31:0] $end
    $var wire  1 I EXMEM_JumpJALR $end
    $var wire  1 M EXMEM_MemRead $end
    $var wire  1 P EXMEM_MemToReg $end
    $var wire  1 N EXMEM_MemWrite $end
    $var wire 32 K EXMEM_MemWriteData [31:0] $end
    $var wire  1 O EXMEM_RegWrite $end
    $var wire  5 E EXMEM_RegWriteAddr [4:0] $end
    $var wire  1 H EXMEM_Zero $end
    $var wire  3 C EXMEM_funct3 [2:0] $end
    $var wire  1 : IDEX_ALUSrc $end
    $var wire  3 > IDEX_ALUcntrl [2:0] $end
    $var wire  1 i IDEX_Branch $end
    $var wire  1 < IDEX_Jump $end
    $var wire  1 = IDEX_JumpJALR $end
    $var wire  1 ? IDEX_MemRead $end
    $var wire  1 A IDEX_MemToReg $end
    $var wire  1 @ IDEX_MemWrite $end
    $var wire 32 ' IDEX_PC [31:0] $end
    $var wire  1 9 IDEX_RegDst $end
    $var wire  1 B IDEX_RegWrite $end
    $var wire  3 4 IDEX_funct3 [2:0] $end
    $var wire  7 5 IDEX_funct7 [6:0] $end
    $var wire  1 ; IDEX_inA_is_PC $end
    $var wire  5 8 IDEX_instr_rd [4:0] $end
    $var wire  5 7 IDEX_instr_rs1 [4:0] $end
    $var wire  5 6 IDEX_instr_rs2 [4:0] $end
    $var wire 32 2 IDEX_rdA [31:0] $end
    $var wire 32 3 IDEX_rdB [31:0] $end
    $var wire 32 . IDEX_signExtend [31:0] $end
    $var wire 32 & IFID_PC [31:0] $end
    $var wire 32 $ IFID_instr [31:0] $end
    $var wire  1 f Jump $end
    $var wire 32 ) JumpAddress [31:0] $end
    $var wire  1 g JumpJALR $end
    $var wire 32 S MEMWB_ALUOut [31:0] $end
    $var wire 32 Q MEMWB_DMemOut [31:0] $end
    $var wire  1 T MEMWB_MemToReg $end
    $var wire  1 U MEMWB_RegWrite $end
    $var wire  5 R MEMWB_RegWriteAddr [4:0] $end
    $var wire  3 D MEMWB_funct3 [2:0] $end
    $var wire 32 P! MemAddr [31:0] $end
    $var wire 32 \ MemOut [31:0] $end
    $var wire  1 ` MemRead $end
    $var wire  1 b MemToReg $end
    $var wire  1 a MemWrite $end
    $var wire 32 L MemWriteData [31:0] $end
    $var wire  1 O! MemWriteEnable $end
    $var wire 32 % PC [31:0] $end
    $var wire  1 d PCSrc $end
    $var wire 32 * PC_new [31:0] $end
    $var wire 32 ( PCplus4 [31:0] $end
    $var wire  1 _ RegDst $end
    $var wire  1 e RegWrite $end
    $var wire  5 w RegWriteAddr [4:0] $end
    $var wire 32 Q! WriteData [31:0] $end
    $var wire  1 ^ Zero $end
    $var wire  1 , branch_taken $end
    $var wire  1 m bubble_exmem $end
    $var wire  1 l bubble_idex $end
    $var wire  1 k bubble_ifid $end
    $var wire  1 T! bubble_memwb $end
    $var wire  2 y bypassA [1:0] $end
    $var wire  2 z bypassB [1:0] $end
    $var wire 32 Z bypassOutA [31:0] $end
    $var wire 32 [ bypassOutB [31:0] $end
    $var wire  4 J byte_select_vector [3:0] $end
    $var wire  1 M! clock $end
    $var wire  3 q funct3 [2:0] $end
    $var wire  7 s funct7 [6:0] $end
    $var wire 32 } imm_b [31:0] $end
    $var wire 32 { imm_i [31:0] $end
    $var wire 32 !! imm_j [31:0] $end
    $var wire 32 | imm_s [31:0] $end
    $var wire 32 ~ imm_u [31:0] $end
    $var wire  1 + inA_is_PC $end
    $var wire 32 R! instr [31:0] $end
    $var wire  5 v instr_rd [4:0] $end
    $var wire  5 t instr_rs1 [4:0] $end
    $var wire  5 u instr_rs2 [4:0] $end
    $var wire  7 p opcode [6:0] $end
    $var wire  1 # overflow $end
    $var wire 32 0 rdA [31:0] $end
    $var wire 32 1 rdB [31:0] $end
    $var wire  1 N! reset $end
    $var wire 32 / signExtend [31:0] $end
    $var wire 32 ] wRegData [31:0] $end
    $var wire  1 U! write_exmem $end
    $var wire  1 U! write_idex $end
    $var wire  1 n write_ifid $end
    $var wire  1 U! write_memwb $end
    $var wire  1 o write_pc $end
    $scope module SignExtendSelector $end
     $var wire 32 } imm_b [31:0] $end
     $var wire 32 { imm_i [31:0] $end
     $var wire 32 !! imm_j [31:0] $end
     $var wire 32 | imm_s [31:0] $end
     $var wire 32 ~ imm_u [31:0] $end
     $var wire  7 p opcode [6:0] $end
     $var wire 32 / out [31:0] $end
    $upscope $end
    $scope module control_alu $end
     $var wire  4 x ALUOp [3:0] $end
     $var wire  3 > ALUcntrl [2:0] $end
     $var wire  3 4 funct3 [2:0] $end
     $var wire  7 5 funct7 [6:0] $end
    $upscope $end
    $scope module control_branch $end
     $var wire  1 j Branch $end
     $var wire  1 , branch_taken $end
     $var wire  3 C funct3 [2:0] $end
     $var wire  1 I! sign $end
     $var wire  1 H zero $end
    $upscope $end
    $scope module control_bypass_ex $end
     $var wire  2 y bypassA [1:0] $end
     $var wire  2 z bypassB [1:0] $end
     $var wire  5 E exmem_rd [4:0] $end
     $var wire  1 O exmem_regwrite $end
     $var wire  5 7 idex_rs1 [4:0] $end
     $var wire  5 6 idex_rs2 [4:0] $end
     $var wire  5 R memwb_rd [4:0] $end
     $var wire  1 U memwb_regwrite $end
    $upscope $end
    $scope module control_main $end
     $var wire  1 c ALUSrc $end
     $var wire  3 r ALUcntrl [2:0] $end
     $var wire  1 h Branch $end
     $var wire  1 f Jump $end
     $var wire  1 g JumpJALR $end
     $var wire  1 ` MemRead $end
     $var wire  1 b MemToReg $end
     $var wire  1 a MemWrite $end
     $var wire  1 _ RegDst $end
     $var wire  1 e RegWrite $end
     $var wire  1 + inA_is_PC $end
     $var wire  7 p opcode [6:0] $end
    $upscope $end
    $scope module control_stall_id $end
     $var wire  1 f Jump $end
     $var wire  1 d PCSrc $end
     $var wire  1 m bubble_exmem $end
     $var wire  1 l bubble_idex $end
     $var wire  1 k bubble_ifid $end
     $var wire  1 T! bubble_memwb $end
     $var wire  1 ? idex_memread $end
     $var wire  5 8 idex_rd [4:0] $end
     $var wire  5 t ifid_rs [4:0] $end
     $var wire  5 u ifid_rt [4:0] $end
     $var wire  1 U! write_exmem $end
     $var wire  1 U! write_idex $end
     $var wire  1 n write_ifid $end
     $var wire  1 U! write_memwb $end
     $var wire  1 o write_pc $end
    $upscope $end
    $scope module cpu_DMem $end
     $var wire 15 H! addr [14:0] $end
     $var wire  4 J byte_select_vector [3:0] $end
     $var wire  1 M! clock $end
     $var wire 32 L din [31:0] $end
     $var wire 32 S! dout [31:0] $end
     $var wire  1 M ren $end
     $var wire  1 N! reset $end
     $var wire  1 N wen $end
    $upscope $end
    $scope module cpu_IMem $end
     $var wire 14 "! addr [13:0] $end
     $var wire  1 M! clock $end
     $var wire 32 R! dout [31:0] $end
     $var wire  1 n ren $end
     $var wire  1 N! reset $end
    $upscope $end
    $scope module cpu_alu $end
     $var wire 32 V! N [31:0] $end
     $var wire 32 V inA [31:0] $end
     $var wire 32 W inB [31:0] $end
     $var wire  4 x op [3:0] $end
     $var wire 32 X out [31:0] $end
     $var wire 32 X out_val [31:0] $end
     $var wire  1 # overflow $end
     $var wire 33 E! unsigned_sub [32:0] $end
     $var wire  1 ^ zero $end
    $upscope $end
    $scope module cpu_regs $end
     $var wire  1 M! clock $end
     $var wire 32 %! data(0) [31:0] $end
     $var wire 32 &! data(1) [31:0] $end
     $var wire 32 /! data(10) [31:0] $end
     $var wire 32 0! data(11) [31:0] $end
     $var wire 32 1! data(12) [31:0] $end
     $var wire 32 2! data(13) [31:0] $end
     $var wire 32 3! data(14) [31:0] $end
     $var wire 32 4! data(15) [31:0] $end
     $var wire 32 5! data(16) [31:0] $end
     $var wire 32 6! data(17) [31:0] $end
     $var wire 32 7! data(18) [31:0] $end
     $var wire 32 8! data(19) [31:0] $end
     $var wire 32 '! data(2) [31:0] $end
     $var wire 32 9! data(20) [31:0] $end
     $var wire 32 :! data(21) [31:0] $end
     $var wire 32 ;! data(22) [31:0] $end
     $var wire 32 <! data(23) [31:0] $end
     $var wire 32 =! data(24) [31:0] $end
     $var wire 32 >! data(25) [31:0] $end
     $var wire 32 ?! data(26) [31:0] $end
     $var wire 32 @! data(27) [31:0] $end
     $var wire 32 A! data(28) [31:0] $end
     $var wire 32 B! data(29) [31:0] $end
     $var wire 32 (! data(3) [31:0] $end
     $var wire 32 C! data(30) [31:0] $end
     $var wire 32 D! data(31) [31:0] $end
     $var wire 32 )! data(4) [31:0] $end
     $var wire 32 *! data(5) [31:0] $end
     $var wire 32 +! data(6) [31:0] $end
     $var wire 32 ,! data(7) [31:0] $end
     $var wire 32 -! data(8) [31:0] $end
     $var wire 32 .! data(9) [31:0] $end
     $var wire 32 $! i [31:0] $end
     $var wire  5 t raA [4:0] $end
     $var wire  5 u raB [4:0] $end
     $var wire 32 0 rdA [31:0] $end
     $var wire 32 1 rdB [31:0] $end
     $var wire  1 N! reset $end
     $var wire  5 R wa [4:0] $end
     $var wire 32 ] wd [31:0] $end
     $var wire  1 U wen $end
    $upscope $end
    $scope module mem_read_selector $end
     $var wire 32 Q DMemOut [31:0] $end
     $var wire  2 J! byte_index [1:0] $end
     $var wire  8 K! byte_sel [7:0] $end
     $var wire 16 L! half [15:0] $end
     $var wire  3 D mem_select [2:0] $end
     $var wire 32 \ out [31:0] $end
    $upscope $end
    $scope module mem_write_selector $end
     $var wire 32 K ALUin [31:0] $end
     $var wire  4 J byte_select_vector [3:0] $end
     $var wire  3 C mem_select [2:0] $end
     $var wire  2 G! offset [1:0] $end
     $var wire 32 L out [31:0] $end
    $upscope $end
    $scope module signExtendUnit $end
     $var wire 32 } imm_b [31:0] $end
     $var wire 32 { imm_i [31:0] $end
     $var wire 32 !! imm_j [31:0] $end
     $var wire 32 | imm_s [31:0] $end
     $var wire 32 ~ imm_u [31:0] $end
     $var wire 25 #! instr [24:0] $end
    $upscope $end
   $upscope $end
  $upscope $end
 $upscope $end
$enddefinitions $end


#0
0#
b00000000000000000000000000000000 $
b00000000000000000000000000000000 %
b00000000000000000000000000000000 &
b00000000000000000000000000000000 '
b00000000000000000000000000000100 (
b00000000000000000000000000000000 )
b00000000000000000000000000000100 *
0+
0,
b00000000000000000000000000000000 -
b00000000000000000000000000000000 .
b00000000000000000000000000000000 /
b00000000000000000000000000000000 0
b00000000000000000000000000000000 1
b00000000000000000000000000000000 2
b00000000000000000000000000000000 3
b000 4
b0000000 5
b00000 6
b00000 7
b00000 8
09
0:
0;
0<
0=
b000 >
0?
0@
0A
0B
b000 C
b000 D
b00000 E
b00000000000000000000000000000000 F
b00000000000000000000000000000000 G
0H
0I
b0001 J
b00000000000000000000000000000000 K
b00000000000000000000000000000000 L
0M
0N
0O
0P
b00000000000000000000000000000000 Q
b00000 R
b00000000000000000000000000000000 S
0T
0U
b00000000000000000000000000000000 V
b00000000000000000000000000000000 W
b00000000000000000000000000000000 X
b00000000000000000000000000000000 Y
b00000000000000000000000000000000 Z
b00000000000000000000000000000000 [
b00000000000000000000000000000000 \
b00000000000000000000000000000000 ]
1^
0_
0`
0a
0b
0c
0d
0e
0f
0g
0h
0i
0j
0k
0l
0m
1n
1o
b0000000 p
b000 q
b000 r
b0000000 s
b00000 t
b00000 u
b00000 v
b00000 w
b0000 x
b00 y
b00 z
b00000000000000000000000000000000 {
b00000000000000000000000000000000 |
b00000000000000000000000000000000 }
b00000000000000000000000000000000 ~
b00000000000000000000000000000000 !!
b00000000000000 "!
b0000000000000000000000000 #!
b00000000000000000000000000000000 $!
b00000000000000000000000000000000 %!
b00000000000000000000000000000000 &!
b00000000000000000000000000000000 '!
b00000000000000000000000000000000 (!
b00000000000000000000000000000000 )!
b00000000000000000000000000000000 *!
b00000000000000000000000000000000 +!
b00000000000000000000000000000000 ,!
b00000000000000000000000000000000 -!
b00000000000000000000000000000000 .!
b00000000000000000000000000000000 /!
b00000000000000000000000000000000 0!
b00000000000000000000000000000000 1!
b00000000000000000000000000000000 2!
b00000000000000000000000000000000 3!
b00000000000000000000000000000000 4!
b00000000000000000000000000000000 5!
b00000000000000000000000000000000 6!
b00000000000000000000000000000000 7!
b00000000000000000000000000000000 8!
b00000000000000000000000000000000 9!
b00000000000000000000000000000000 :!
b00000000000000000000000000000000 ;!
b00000000000000000000000000000000 <!
b00000000000000000000000000000000 =!
b00000000000000000000000000000000 >!
b00000000000000000000000000000000 ?!
b00000000000000000000000000000000 @!
b00000000000000000000000000000000 A!
b00000000000000000000000000000000 B!
b00000000000000000000000000000000 C!
b00000000000000000000000000000000 D!
b000000000000000000000000000000000 E!
b00 G!
b000000000000000 H!
0I!
b00 J!
b00000000 K!
b0000000000000000 L!
0M!
1N!
0O!
b00000000000000000000000000000000 P!
b00000000000000000000000000000000 Q!
b00000000000000000000000010010011 R!
b00000000000000000000000000000000 S!
0T!
1U!
b00000000000000000000000000100000 V!
#1
b00000000000000000000000010010011 $
b00000000000000000000000000000100 %
b00000000000000000000000000001000 (
b00000000000000000000000000001000 *
1H
1_
1c
1e
b0010011 p
b101 r
b00001 v
b00000000000000000000000000000001 |
b00000000000000000000100000000000 }
b00000000000001 "!
b0000000000000000000000001 #!
1M!
b00000000000000000000000100010011 R!
#2
0M!
#3
b00000000000000000000000100010011 $
b00000000000000000000000000001000 %
b00000000000000000000000000000100 &
b00000000000000000000000000001100 (
b00000000000000000000000000000100 )
b00000000000000000000000000001100 *
b00001 8
19
1:
b101 >
1B
b00010 v
b00001 w
b00000000000000000000000000000010 |
b00000000000000000000000000000010 }
b00000000000010 "!
b0000000000000000000000010 #!
1M!
b00000000001000001000000110110011 R!
#4
0M!
#5
b00000000000000000000000000000000 $
b00000000010000000000000000000000 %
b00000000000000000000000000000000 &
b00000000010000000000000000000100 (
b00000000000000000000000000000000 )
b00000000010000000000000000000100 *
b00000 8
09
0:
b000 >
0B
b111 C
b111 D
0H
b1111 J
0_
0c
0e
b0000000 p
b000 r
b00000 v
b00000 w
b00000000000000000000000000000000 |
b00000000000000000000000000000000 }
b00000000000000 "!
b0000000000000000000000000 #!
b00000000000000000000000000100000 $!
1M!
0N!
b00000000000000000000000000000000 R!
#6
0M!
#7
1M!
#8
0M!
#9
1M!
#10
0M!
1N!
b00000000000000000000000010010011 R!
#11
b00000000000000000000000010010011 $
b00000000010000000000000000000100 %
b00000000010000000000000000000000 &
b00000000010000000000000000001000 (
b00000000010000000000000000000000 )
b00000000010000000000000000001000 *
b000 C
1H
b0001 J
1_
1c
1e
b0010011 p
b101 r
b00001 v
b00000000000000000000000000000001 |
b00000000000000000000100000000000 }
b00000000000001 "!
b0000000000000000000000001 #!
1M!
b00000000000000000000000100010011 R!
#12
0M!
#13
b00000000000000000000000100010011 $
b00000000010000000000000000001000 %
b00000000010000000000000000000100 &
b00000000010000000000000000000000 '
b00000000010000000000000000001100 (
b00000000010000000000000000000100 )
b00000000010000000000000000001100 *
b00000000010000000000000000000000 -
b00001 8
19
1:
b101 >
1B
b000 D
b00000000010000000000000000000000 Y
b00010 v
b00001 w
b00000000000000000000000000000010 |
b00000000000000000000000000000010 }
b00000000000010 "!
b0000000000000000000000010 #!
1M!
b00000000001000001000000110110011 R!
#14
0M!
#15
b00000000001000001000000110110011 $
b00000000010000000000000000001100 %
b00000000010000000000000000001000 &
b00000000010000000000000000000100 '
b00000000010000000000000000010000 (
b00000000010000000000000000001000 )
b00000000010000000000000000010000 *
b00000000010000000000000000000100 -
b00010 8
b00001 E
b00000000010000000000000000000000 G
1O
b00000000010000000000000000000100 Y
0c
b0110011 p
b000 r
b00001 t
b00010 u
b00011 v
b00010 w
b00000000000000000000000000000010 {
b00000000000000000000000000000011 |
b00000000000000000000100000000010 }
b00000000001000001000000000000000 ~
b00000000000000001000000000000010 !!
b00000000000011 "!
b0000000000100000100000011 #!
1M!
b00000000000000000000111010010011 R!
#16
0M!
#17
b00000000000000000000111010010011 $
b00000000010000000000000000010000 %
b00000000010000000000000000001100 &
b00000000010000000000000000001000 '
b00000000010000000000000000010100 (
b00000000010000000000000000001100 )
b00000000010000000000000000010100 *
b00000000010000000000000000001000 -
b00010 6
b00001 7
b00011 8
0:
b000 >
b00010 E
b00000000010000000000000000000100 G
b00001 R
1U
b00000000010000000000000000001000 Y
1c
b0010011 p
b101 r
b00000 t
b00000 u
b11101 v
b00011 w
b01 y
b10 z
b00000000000000000000000000000000 {
b00000000000000000000000000011101 |
b00000000000000000000100000011100 }
b00000000000000000000000000000000 ~
b00000000000000000000000000000000 !!
b00000000000100 "!
b0000000000000000000011101 #!
1M!
b00000000001000000000111000010011 R!
#18
0M!
#19
b00000000001000000000111000010011 $
b00000000010000000000000000010100 %
b00000000010000000000000000010000 &
b00000000010000000000000000001100 '
b00000000010000000000000000011000 (
b00000000010000000000000000010010 )
b00000000010000000000000000011000 *
b00000000010000000000000000001100 -
b00000000000000000000000000000010 /
b00000 6
b00000 7
b11101 8
1:
b101 >
b00011 E
b00000000010000000000000000001000 G
b00010 R
b00000000010000000000000000001100 Y
b00010 u
b11100 v
b11101 w
b00 y
b00 z
b00000000000000000000000000000010 {
b00000000000000000000000000011100 |
b00000000000000000000000000011100 }
b00000000001000000000000000000000 ~
b00000000000000000000000000000010 !!
b00000000000101 "!
b0000000000100000000011100 #!
1M!
b01001101110100011001011001100011 R!
#20
0M!
#21
b01001101110100011001011001100011 $
b00000000010000000000000000011000 %
b00000000010000000000000000010100 &
b00000000010000000000000000010000 '
b00000000010000000000000000011100 (
b00000000010000000000010011100000 )
b00000000010000000000000000011100 *
b00000000010000000000000000010000 -
b00000000000000000000000000000010 .
b00000000000000000000010011001100 /
b00010 6
b11100 8
b11101 E
b00000000010000000000000000001100 G
b00011 R
b00000000000000000000000000000010 W
b00000000000000000000000000000010 X
b00000000010000000000000000010010 Y
0^
0_
0c
0e
1h
b1100011 p
b001 q
b010 r
b0100110 s
b00011 t
b11101 u
b01100 v
b11100 w
b00000000000000000000010011011101 {
b00000000000000000000010011001100 |
b00000000000000000000010011001100 }
b01001101110100011001000000000000 ~
b00000000000000011001110011011100 !!
b00000000000110 "!
b0100110111010001100101100 #!
b111111111111111111111111111111110 E!
1M!
b00000000000100000000000010010011 R!
#22
0M!
#23
b00000000000100000000000010010011 $
b00000000010000000000000000011100 %
b00000000010000000000000000011000 &
b00000000010000000000000000010100 '
b00000000010000000000000000100000 (
b00000000010000000000000000011001 )
b00000000010000000000000000100000 *
b00000000010000000000000000010100 -
b00000000000000000000010011001100 .
b00000000000000000000000000000001 /
b001 4
b0100110 5
b11101 6
b00011 7
b01100 8
09
0:
b010 >
0B
b11100 E
b00000000000000000000000000000010 F
b00000000010000000000000000010010 G
0H
b0100 J
b11101 R
b00000000000000000000000000000000 W
b00000000000000000000000000000000 X
b00000000010000000000010011100000 Y
1^
1_
1c
1e
0h
1i
b0010011 p
b000 q
b101 r
b0000000 s
b00000 t
b00001 u
b00001 v
b11101 w
b0001 x
b01 z
b00000000000000000000000000000001 {
b00000000000000000000000000000001 |
b00000000000000000000100000000000 }
b00000000000100000000000000000000 ~
b00000000000000000000100000000000 !!
b00000000000111 "!
b0000000000010000000000001 #!
b000000000000000000000000000000000 E!
b10 G!
1M!
b00000000000100000000000100010011 R!
#24
0M!
#25
b00000000000100000000000100010011 $
b00000000010000000000000000100000 %
b00000000010000000000000000011100 &
b00000000010000000000000000011000 '
b00000000010000000000000000100100 (
b00000000010000000000000000011101 )
b00000000010000000000000000100100 *
b00000000010000000000000000011000 -
b00000000000000000000000000000001 .
b000 4
b0000000 5
b00001 6
b00000 7
b00001 8
19
1:
b101 >
1B
b001 C
b11101 E
b00000000000000000000000000000000 F
b00000000010000000000010011100000 G
1H
b0011 J
0O
b11100 R
b00000000000000000000000000000010 S
b00000000000000000000000000000001 W
b00000000000000000000000000000001 X
b00000000010000000000000000011001 Y
b00000000000000000000000000000010 ]
0^
0i
1j
b00010 v
b00001 w
b0000 x
b00 z
b00000000000000000000000000000010 |
b00000000000000000000000000000010 }
b00000000001000 "!
b0000000000010000000000010 #!
b111111111111111111111111111111111 E!
b00 G!
b10 J!
1M!
b00000000001000001000000110110011 R!
#26
0M!
#27
b00000000001000001000000110110011 $
b00000000010000000000000000100100 %
b00000000010000000000000000100000 &
b00000000010000000000000000011100 '
b00000000010000000000000000101000 (
b00000000010000000000000000100000 )
b00000000010000000000000000101000 *
b00000000010000000000000000011100 -
b00000000000000000000000000000000 /
b00010 8
b000 C
b001 D
b00001 E
b00000000000000000000000000000001 F
b00000000010000000000000000011001 G
0H
b0010 J
1O
b11101 R
b00000000000000000000000000000000 S
0U
b00000000010000000000000000011101 Y
b00000000000000000000000000000001 [
b00000000000000000000000000000000 ]
0c
0j
b0110011 p
b000 r
b00001 t
b00010 u
b00011 v
b00010 w
b10 z
b00000000000000000000000000000010 {
b00000000000000000000000000000011 |
b00000000000000000000100000000010 }
b00000000001000001000000000000000 ~
b00000000000000001000000000000010 !!
b00000000001001 "!
b0000000000100000100000011 #!
b00000000000000000000000000000010 A!
b01 G!
b00 J!
1M!
b00000000001000000000111010010011 R!
#28
0M!
#29
b00000000001000000000111010010011 $
b00000000010000000000000000101000 %
b00000000010000000000000000100100 &
b00000000010000000000000000100000 '
b00000000010000000000000000101100 (
b00000000010000000000000000100110 )
b00000000010000000000000000101100 *
b00000000010000000000000000100000 -
b00000000000000000000000000000000 .
b00000000000000000000000000000010 /
b00010 6
b00001 7
b00011 8
0:
b000 >
b000 D
b00010 E
b00000000010000000000000000011101 G
b00000000000000000000000000000001 K
b00000000000000000000000100000000 L
b00001 R
b00000000000000000000000000000001 S
1U
b00000000000000000000000000000001 V
b00000000000000000000000000000010 X
b00000000010000000000000000100000 Y
b00000000000000000000000000000001 Z
b00000000000000000000000000000001 ]
1c
b0010011 p
b101 r
b00000 t
b11101 v
b00011 w
b01 y
b00000000000000000000000000011101 |
b00000000000000000000100000011100 }
b00000000001000000000000000000000 ~
b00000000000000000000000000000010 !!
b00000000001010 "!
b0000000000100000000011101 #!
b000000000000000000000000000000000 E!
b01 J!
1M!
b00000000001100000000111000010011 R!
#30
0M!
#31
b00000000001100000000111000010011 $
b00000000010000000000000000101100 %
b00000000010000000000000000101000 &
b00000000010000000000000000100100 '
b00000000010000000000000000110000 (
b00000000010000000000000000101011 )
b00000000010000000000000000110000 *
b00000000010000000000000000100100 -
b00000000000000000000000000000010 .
b00000000000000000000000000000011 /
b00000 7
b11101 8
1:
b101 >
b00011 E
b00000000000000000000000000000010 F
b00000000010000000000000000100000 G
b0100 J
b00000000000000010000000000000000 L
b00010 R
b00000000000000000000000000000000 V
b00000000000000000000000000000010 W
b00000000010000000000000000100110 Y
b00000000000000000000000000000000 Z
b00011 u
b11100 v
b11101 w
b00 y
b01 z
b00000000000000000000000000000011 {
b00000000000000000000000000011100 |
b00000000000000000000000000011100 }
b00000000001100000000000000000000 ~
b00000000000000000000100000000010 !!
b00000000001011 "!
b0000000000110000000011100 #!
b00000000000000000000000000000001 &!
b111111111111111111111111111111110 E!
b10 G!
1M!
b01001011110100011001101001100011 R!
#32
0M!
#33
b01001011110100011001101001100011 $
b00000000010000000000000000110000 %
b00000000010000000000000000101100 &
b00000000010000000000000000101000 '
b00000000010000000000000000110100 (
b00000000010000000000010011100000 )
b00000000010000000000000000110100 *
b00000000010000000000000000101000 -
b00000000000000000000000000000011 .
b00000000000000000000010010110100 /
b00000000000000000000000000000010 0
b00011 6
b11100 8
b11101 E
b00000000010000000000000000100110 G
b00011 R
b00000000000000000000000000000010 S
b00000000000000000000000000000011 W
b00000000000000000000000000000011 X
b00000000010000000000000000101011 Y
b00000000000000000000000000000010 [
b00000000000000000000000000000010 ]
0_
0c
0e
1h
b1100011 p
b001 q
b010 r
b0100101 s
b00011 t
b11101 u
b10100 v
b11100 w
b00000000000000000000010010111101 {
b00000000000000000000010010110100 |
b00000000000000000000010010110100 }
b01001011110100011001000000000000 ~
b00000000000000011001110010111100 !!
b00000000001100 "!
b0100101111010001100110100 #!
b00000000000000000000000000000001 '!
b111111111111111111111111111111101 E!
b10 J!
1M!
b00000000001100000000000010010011 R!
#34
0M!
#35
b00000000001100000000000010010011 $
b00000000010000000000000000110100 %
b00000000010000000000000000110000 &
b00000000010000000000000000101100 '
b00000000010000000000000000111000 (
b00000000010000000000000000110011 )
b00000000010000000000000000111000 *
b00000000010000000000000000101100 -
b00000000000000000000010010110100 .
b00000000000000000000000000000011 /
b00000000000000000000000000000000 0
b00000000000000000000000000000010 1
b00000000000000000000000000000010 2
b001 4
b0100101 5
b11101 6
b00011 7
b10100 8
09
0:
b010 >
0B
b11100 E
b00000000000000000000000000000011 F
b00000000010000000000000000101011 G
b1000 J
b00000000000000000000000000000010 K
b00000010000000000000000000000000 L
b11101 R
b00000000000000000000000000000010 V
b00000000000000000000000000000010 W
b00000000000000000000000000000000 X
b00000000010000000000010011100000 Y
b00000000000000000000000000000010 Z
1^
1_
1c
1e
0h
1i
b0010011 p
b000 q
b101 r
b0000000 s
b00000 t
b00011 u
b00001 v
b11101 w
b0001 x
b00000000000000000000000000000011 {
b00000000000000000000000000000001 |
b00000000000000000000100000000000 }
b00000000001100000000000000000000 ~
b00000000000000000000100000000010 !!
b00000000001101 "!
b0000000000110000000000001 #!
b00000000000000000000000000000010 (!
b000000000000000000000000000000000 E!
b11 G!
1M!
b00000000011100000000000100010011 R!
#36
0M!
#37
b00000000011100000000000100010011 $
b00000000010000000000000000111000 %
b00000000010000000000000000110100 &
b00000000010000000000000000110000 '
b00000000010000000000000000111100 (
b00000000010000000000000000111011 )
b00000000010000000000000000111100 *
b00000000010000000000000000110000 -
b00000000000000000000000000000011 .
b00000000000000000000000000000111 /
b00000000000000000000000000000000 1
b00000000000000000000000000000000 2
b00000000000000000000000000000010 3
b000 4
b0000000 5
b00011 6
b00000 7
b00001 8
19
1:
b101 >
1B
b001 C
b11101 E
b00000000000000000000000000000000 F
b00000000010000000000010011100000 G
1H
b0011 J
b00000000000000000000000000000010 L
0O
b11100 R
b00000000000000000000000000000011 S
b00000000000000000000000000000000 V
b00000000000000000000000000000011 W
b00000000000000000000000000000011 X
b00000000010000000000000000110011 Y
b00000000000000000000000000000000 Z
b00000000000000000000000000000011 ]
0^
0i
1j
b00111 u
b00010 v
b00001 w
b0000 x
b00 z
b00000000000000000000000000000111 {
b00000000000000000000000000000010 |
b00000000000000000000000000000010 }
b00000000011100000000000000000000 ~
b00000000000000000000100000000110 !!
b00000000001110 "!
b0000000001110000000000010 #!
b00000000000000000000000000000010 B!
b111111111111111111111111111111101 E!
b00 G!
b11 J!
1M!
b00000000001000001000000110110011 R!
#38
0M!
#39
b00000000001000001000000110110011 $
b00000000010000000000000000111100 %
b00000000010000000000000000111000 &
b00000000010000000000000000110100 '
b00000000010000000000000001000000 (
b00000000010000000000000000111000 )
b00000000010000000000000001000000 *
b00000000010000000000000000110100 -
b00000000000000000000000000000111 .
b00000000000000000000000000000000 /
b00000000000000000000000000000001 0
b00000000000000000000000000000001 1
b00000000000000000000000000000000 3
b00111 6
b00010 8
b000 C
b001 D
b00001 E
b00000000000000000000000000000011 F
b00000000010000000000000000110011 G
0H
b1000 J
b00000010000000000000000000000000 L
1O
b11101 R
b00000000000000000000000000000000 S
0U
b00000000000000000000000000000111 W
b00000000000000000000000000000111 X
b00000000010000000000000000111011 Y
b00000000000000000000000000000000 [
b00000000000000000000000000000000 ]
0c
0j
b0110011 p
b000 r
b00001 t
b00010 u
b00011 v
b00010 w
b00000000000000000000000000000010 {
b00000000000000000000000000000011 |
b00000000000000000000100000000010 }
b00000000001000001000000000000000 ~
b00000000000000001000000000000010 !!
b00000000001111 "!
b0000000000100000100000011 #!
b00000000000000000000000000000011 A!
b111111111111111111111111111111001 E!
b11 G!
b00 J!
1M!
b00000000101000000000111010010011 R!
#40
0M!
