testbench/simx.vcd
$version Generated by VerilatedVcd $end
$date Sat May  6 13:15:49 2023
 $end
$timescale   1ps $end

 $scope module TOP $end
  $var wire 32 B! MemAddr [31:0] $end
  $var wire  1 A! MemWriteEnable $end
  $var wire 32 C! WriteData [31:0] $end
  $var wire  1 ?! clock $end
  $var wire  1 @! reset $end
  $scope module toplevel $end
   $var wire 32 B! MemAddr [31:0] $end
   $var wire  1 A! MemWriteEnable $end
   $var wire 32 C! WriteData [31:0] $end
   $var wire  1 ?! clock $end
   $var wire  1 @! reset $end
   $scope module cpu $end
    $var wire 32 )! ALUInA [31:0] $end
    $var wire 32 *! ALUInB [31:0] $end
    $var wire  4 W ALUOp [3:0] $end
    $var wire 32 +! ALUOut [31:0] $end
    $var wire  1 1! ALUSrc $end
    $var wire  3 =! ALUcntrl [2:0] $end
    $var wire  1 7! Branch $end
    $var wire 32 J BranchALUOut [31:0] $end
    $var wire  1 6! BranchNZ $end
    $var wire  1 5! BranchZ $end
    $var wire  1 4! CPU_RegWrite $end
    $var wire 32 D! DMemOut [31:0] $end
    $var wire 32 %! EXMEM_ALUOut [31:0] $end
    $var wire 32 > EXMEM_BranchALUOut [31:0] $end
    $var wire  1 B EXMEM_BranchNZ $end
    $var wire  1 A EXMEM_BranchZ $end
    $var wire  1 '! EXMEM_MemRead $end
    $var wire  1 D EXMEM_MemToReg $end
    $var wire  1 (! EXMEM_MemWrite $end
    $var wire 32 @ EXMEM_MemWriteData [31:0] $end
    $var wire 32 & EXMEM_PC [31:0] $end
    $var wire  1 C EXMEM_RegWrite $end
    $var wire  5 = EXMEM_RegWriteAddr [4:0] $end
    $var wire  1 ? EXMEM_Zero $end
    $var wire  3 ; EXMEM_funct3 [2:0] $end
    $var wire  1 5 IDEX_ALUSrc $end
    $var wire  3 6 IDEX_ALUcntrl [2:0] $end
    $var wire  1 8 IDEX_BranchNZ $end
    $var wire  1 7 IDEX_BranchZ $end
    $var wire  1 #! IDEX_MemRead $end
    $var wire  1 9 IDEX_MemToReg $end
    $var wire  1 $! IDEX_MemWrite $end
    $var wire 32 % IDEX_PC [31:0] $end
    $var wire 32 0 IDEX_PCplus4 [31:0] $end
    $var wire  1 4 IDEX_RegDst $end
    $var wire  1 : IDEX_RegWrite $end
    $var wire  3 . IDEX_funct3 [2:0] $end
    $var wire  7 / IDEX_funct7 [6:0] $end
    $var wire  5 3 IDEX_instr_rd [4:0] $end
    $var wire  5 2 IDEX_instr_rs1 [4:0] $end
    $var wire  5 1 IDEX_instr_rs2 [4:0] $end
    $var wire 32 , IDEX_rdA [31:0] $end
    $var wire 32 - IDEX_rdB [31:0] $end
    $var wire 32 * IDEX_signExtend [31:0] $end
    $var wire 32 $ IFID_PC [31:0] $end
    $var wire 32 ' IFID_PCplus4 [31:0] $end
    $var wire 32 ( IFID_instr [31:0] $end
    $var wire  1 3! Jump $end
    $var wire 32 N JumpAddress [31:0] $end
    $var wire 32 G MEMWB_ALUOut [31:0] $end
    $var wire 32 E MEMWB_DMemOut [31:0] $end
    $var wire  1 H MEMWB_MemToReg $end
    $var wire  1 I MEMWB_RegWrite $end
    $var wire  5 F MEMWB_RegWriteAddr [4:0] $end
    $var wire  3 < MEMWB_funct3 [2:0] $end
    $var wire 32 B! MemAddr [31:0] $end
    $var wire 32 K MemOut [31:0] $end
    $var wire  1 .! MemRead $end
    $var wire  1 0! MemToReg $end
    $var wire  1 /! MemWrite $end
    $var wire 32 &! MemWriteData [31:0] $end
    $var wire  1 A! MemWriteEnable $end
    $var wire 32 # PC [31:0] $end
    $var wire  1 O PCSrc $end
    $var wire 32 E! PC_new [31:0] $end
    $var wire 32 M PCplus4 [31:0] $end
    $var wire  1 -! RegDst $end
    $var wire  1 2! RegWrite $end
    $var wire  5 V RegWriteAddr [4:0] $end
    $var wire 32 C! WriteData [31:0] $end
    $var wire  1 F! Zero $end
    $var wire  1 :! bubble_exmem $end
    $var wire  1 9! bubble_idex $end
    $var wire  1 8! bubble_ifid $end
    $var wire  1 G! bubble_memwb $end
    $var wire  2 X bypassA [1:0] $end
    $var wire  2 Y bypassB [1:0] $end
    $var wire 32 ,! bypassOutB [31:0] $end
    $var wire  1 ?! clock $end
    $var wire  3 Q funct3 [2:0] $end
    $var wire  7 R funct7 [6:0] $end
    $var wire 32 \ imm_b [31:0] $end
    $var wire 32 Z imm_i [31:0] $end
    $var wire 32 ^ imm_j [31:0] $end
    $var wire 32 [ imm_s [31:0] $end
    $var wire 32 ] imm_u [31:0] $end
    $var wire 32 ) instr [31:0] $end
    $var wire  5 U instr_rd [4:0] $end
    $var wire  5 S instr_rs1 [4:0] $end
    $var wire  5 T instr_rs2 [4:0] $end
    $var wire  7 P opcode [6:0] $end
    $var wire  1 @! reset $end
    $var wire 32 + signExtend [31:0] $end
    $var wire 32 L wRegData [31:0] $end
    $var wire  1 H! write_exmem $end
    $var wire  1 H! write_idex $end
    $var wire  1 ;! write_ifid $end
    $var wire  1 H! write_memwb $end
    $var wire  1 <! write_pc $end
    $scope module branch_alu $end
     $var wire 32 J! N [31:0] $end
     $var wire 32 L! PC [31:0] $end
     $var wire 32 % inA [31:0] $end
     $var wire 32 * inB [31:0] $end
     $var wire  4 K! op [3:0] $end
     $var wire 32 J out [31:0] $end
     $var wire  1 G! zero $end
    $upscope $end
    $scope module control_alu $end
     $var wire  4 W ALUOp [3:0] $end
     $var wire  3 6 ALUcntrl [2:0] $end
     $var wire  3 . funct3 [2:0] $end
     $var wire  7 / funct7 [6:0] $end
    $upscope $end
    $scope module control_branch $end
     $var wire  1 7! Branch $end
     $var wire  1 6! BranchNZ $end
     $var wire  1 5! BranchZ $end
     $var wire  3 Q funct3 [2:0] $end
    $upscope $end
    $scope module control_bypass_ex $end
     $var wire  2 X bypassA [1:0] $end
     $var wire  2 Y bypassB [1:0] $end
     $var wire  5 = exmem_rd [4:0] $end
     $var wire  1 C exmem_regwrite $end
     $var wire  5 2 idex_rs [4:0] $end
     $var wire  5 1 idex_rt [4:0] $end
     $var wire  5 F memwb_rd [4:0] $end
     $var wire  1 I memwb_regwrite $end
    $upscope $end
    $scope module control_main $end
     $var wire  1 1! ALUSrc $end
     $var wire  3 =! ALUcntrl [2:0] $end
     $var wire  1 7! Branch $end
     $var wire  1 3! Jump $end
     $var wire  1 .! MemRead $end
     $var wire  1 0! MemToReg $end
     $var wire  1 /! MemWrite $end
     $var wire  1 -! RegDst $end
     $var wire  1 2! RegWrite $end
     $var wire  7 P opcode [6:0] $end
    $upscope $end
    $scope module control_mem_in $end
     $var wire 32 @ ALUin [31:0] $end
     $var wire  3 ; mem_select [2:0] $end
     $var wire 32 &! out [31:0] $end
    $upscope $end
    $scope module control_mem_out $end
     $var wire 32 E DMemOut [31:0] $end
     $var wire  3 < mem_select [2:0] $end
     $var wire 32 K out [31:0] $end
    $upscope $end
    $scope module control_stall_id $end
     $var wire  1 C EXMEM_RegWrite $end
     $var wire  1 : IDEX_RegWrite $end
     $var wire  1 3! Jump $end
     $var wire  1 I MEMWB_RegWrite $end
     $var wire  1 O PCSrc $end
     $var wire  1 :! bubble_exmem $end
     $var wire  1 9! bubble_idex $end
     $var wire  1 8! bubble_ifid $end
     $var wire  1 G! bubble_memwb $end
     $var wire  5 = exmem_rd [4:0] $end
     $var wire  1 #! idex_memread $end
     $var wire  5 3 idex_rd [4:0] $end
     $var wire  5 1 idex_rt [4:0] $end
     $var wire  5 U ifid_rd [4:0] $end
     $var wire  5 S ifid_rs [4:0] $end
     $var wire  5 T ifid_rt [4:0] $end
     $var wire  5 F memwb_rd [4:0] $end
     $var wire  1 H! write_exmem $end
     $var wire  1 H! write_idex $end
     $var wire  1 ;! write_ifid $end
     $var wire  1 H! write_memwb $end
     $var wire  1 <! write_pc $end
    $upscope $end
    $scope module cpu_DMem $end
     $var wire 15 >! addr [14:0] $end
     $var wire  1 ?! clock $end
     $var wire 32 &! din [31:0] $end
     $var wire 32 D! dout [31:0] $end
     $var wire  1 '! ren $end
     $var wire  1 @! reset $end
     $var wire  1 (! wen $end
    $upscope $end
    $scope module cpu_IMem $end
     $var wire 14 _ addr [13:0] $end
     $var wire  1 ?! clock $end
     $var wire 32 I! din [31:0] $end
     $var wire 32 ) dout [31:0] $end
     $var wire  1 ;! ren $end
     $var wire  1 @! reset $end
     $var wire  1 G! wen $end
    $upscope $end
    $scope module cpu_alu $end
     $var wire 32 J! N [31:0] $end
     $var wire 32 & PC [31:0] $end
     $var wire 32 )! inA [31:0] $end
     $var wire 32 *! inB [31:0] $end
     $var wire  4 W op [3:0] $end
     $var wire 32 +! out [31:0] $end
     $var wire  1 F! zero $end
    $upscope $end
    $scope module cpu_regs $end
     $var wire  1 ?! clock $end
     $var wire 32 a data(0) [31:0] $end
     $var wire 32 b data(1) [31:0] $end
     $var wire 32 k data(10) [31:0] $end
     $var wire 32 l data(11) [31:0] $end
     $var wire 32 m data(12) [31:0] $end
     $var wire 32 n data(13) [31:0] $end
     $var wire 32 o data(14) [31:0] $end
     $var wire 32 p data(15) [31:0] $end
     $var wire 32 q data(16) [31:0] $end
     $var wire 32 r data(17) [31:0] $end
     $var wire 32 s data(18) [31:0] $end
     $var wire 32 t data(19) [31:0] $end
     $var wire 32 c data(2) [31:0] $end
     $var wire 32 u data(20) [31:0] $end
     $var wire 32 v data(21) [31:0] $end
     $var wire 32 w data(22) [31:0] $end
     $var wire 32 x data(23) [31:0] $end
     $var wire 32 y data(24) [31:0] $end
     $var wire 32 z data(25) [31:0] $end
     $var wire 32 { data(26) [31:0] $end
     $var wire 32 | data(27) [31:0] $end
     $var wire 32 } data(28) [31:0] $end
     $var wire 32 ~ data(29) [31:0] $end
     $var wire 32 d data(3) [31:0] $end
     $var wire 32 !! data(30) [31:0] $end
     $var wire 32 "! data(31) [31:0] $end
     $var wire 32 e data(4) [31:0] $end
     $var wire 32 f data(5) [31:0] $end
     $var wire 32 g data(6) [31:0] $end
     $var wire 32 h data(7) [31:0] $end
     $var wire 32 i data(8) [31:0] $end
     $var wire 32 j data(9) [31:0] $end
     $var wire 32 ` i [31:0] $end
     $var wire  5 S raA [4:0] $end
     $var wire  5 T raB [4:0] $end
     $var wire 32 , rdA [31:0] $end
     $var wire 32 - rdB [31:0] $end
     $var wire  1 @! reset $end
     $var wire  5 F wa [4:0] $end
     $var wire 32 L wd [31:0] $end
     $var wire  1 4! wen $end
    $upscope $end
    $scope module signExtendUnit $end
     $var wire 32 \ imm_b [31:0] $end
     $var wire 32 Z imm_i [31:0] $end
     $var wire 32 ^ imm_j [31:0] $end
     $var wire 32 [ imm_s [31:0] $end
     $var wire 32 ] imm_u [31:0] $end
     $var wire  7 P opcode [6:0] $end
     $var wire 32 + out [31:0] $end
    $upscope $end
   $upscope $end
  $upscope $end
 $upscope $end
$enddefinitions $end


#0
b00000000000000000000000000000000 #
b00000000000000000000000000000000 $
b00000000000000000000000000000000 %
b00000000000000000000000000000000 &
b00000000000000000000000000000000 '
b00000000000000000000000000000000 (
b00000000000000000000000010010011 )
b00000000000000000000000000000000 *
b00000000000000000000000000000000 +
b00000000000000000000000000000000 ,
b00000000000000000000000000000000 -
b000 .
b0000000 /
b00000000000000000000000000000000 0
b00000 1
b00000 2
b00000 3
04
05
b000 6
07
08
09
0:
b000 ;
b000 <
b00000 =
b00000000000000000000000000000000 >
0?
b00000000000000000000000000000000 @
0A
0B
0C
0D
b00000000000000000000000000000000 E
b00000 F
b00000000000000000000000000000000 G
0H
0I
b00000000000000000000000000000000 J
b00000000000000000000000000000000 K
b00000000000000000000000000000000 L
b00000000000000000000000000000100 M
b00000000000000000000000000000000 N
0O
b0000000 P
b000 Q
b0000000 R
b00000 S
b00000 T
b00000 U
b00000 V
b0000 W
b00 X
b00 Y
b00000000000000000000000000000000 Z
b00000000000000000000000000000000 [
b00000000000000000000000000000000 \
b00000000000000000000000000000000 ]
b00000000000000000000000000000000 ^
b00000000000000 _
b00000000000000000000000000000000 `
b00000000000000000000000000000000 a
b00000000000000000000000000000000 b
b00000000000000000000000000000000 c
b00000000000000000000000000000000 d
b00000000000000000000000000000000 e
b00000000000000000000000000000000 f
b00000000000000000000000000000000 g
b00000000000000000000000000000000 h
b00000000000000000000000000000000 i
b00000000000000000000000000000000 j
b00000000000000000000000000000000 k
b00000000000000000000000000000000 l
b00000000000000000000000000000000 m
b00000000000000000000000000000000 n
b00000000000000000000000000000000 o
b00000000000000000000000000000000 p
b00000000000000000000000000000000 q
b00000000000000000000000000000000 r
b00000000000000000000000000000000 s
b00000000000000000000000000000000 t
b00000000000000000000000000000000 u
b00000000000000000000000000000000 v
b00000000000000000000000000000000 w
b00000000000000000000000000000000 x
b00000000000000000000000000000000 y
b00000000000000000000000000000000 z
b00000000000000000000000000000000 {
b00000000000000000000000000000000 |
b00000000000000000000000000000000 }
b00000000000000000000000000000000 ~
b00000000000000000000000000000000 !!
b00000000000000000000000000000000 "!
0#!
0$!
b00000000000000000000000000000000 %!
b00000000000000000000000000000000 &!
0'!
0(!
b00000000000000000000000000000000 )!
b00000000000000000000000000000000 *!
b00000000000000000000000000000000 +!
b00000000000000000000000000000000 ,!
0-!
0.!
0/!
00!
01!
02!
03!
04!
05!
06!
07!
08!
09!
0:!
1;!
1<!
b000 =!
b000000000000000 >!
0?!
1@!
0A!
b00000000000000000000000000000000 B!
b00000000000000000000000000000000 C!
b00000000000000000000000000000000 D!
b00000000000000000000000000000100 E!
0F!
0G!
1H!
b00000000000000000000000000000000 I!
b00000000000000000000000000100000 J!
b0000 K!
b00000000000000000000000000000000 L!
#1
b00000000000000000000000000000100 #
b00000000000000000000000000000100 '
b00000000000000000000000010010011 (
b00000000000000001000000110010011 )
b00000000000000000000000000001000 M
b0010011 P
b00001 U
b00000000000000000000000000000001 [
b00000000000000000000100000000000 \
b00000000000001 _
1-!
11!
12!
b101 =!
1?!
b00000000000000000000000000001000 E!
#2
0?!
#3
b00000000000000000000000000001000 #
b00000000000000000000000000000100 $
b00000000000000000000000000001000 '
b00000000000000001000000110010011 (
b00000000000000000000111010010011 )
b00000000000000000000000000000100 0
b00001 3
14
15
b101 6
1:
b00000000000000000000000000001100 M
b00000000000000000000000000000001 N
b00001 S
b00011 U
b00001 V
b00000000000000000000000000000011 [
b00000000000000000000100000000010 \
b00000000000000001000000000000000 ]
b00000000000000001000000000000000 ^
b00000000000010 _
1?!
b00000000000000000000000000001100 E!
#4
0?!
#5
b00000000010000000000000000000000 #
b00000000000000000000000000000000 $
b00000000000000000000000000000000 '
b00000000000000000000000000000000 (
b00000000000000000000000010010011 )
b00000000000000000000000000000000 0
b00000 3
04
05
b000 6
0:
b111 ;
b111 <
b00000000010000000000000000000100 M
b00000000000000000000000000000000 N
b0000000 P
b00000 S
b00000 U
b00000 V
b00000000000000000000000000000000 [
b00000000000000000000000000000000 \
b00000000000000000000000000000000 ]
b00000000000000000000000000000000 ^
b00000000000000 _
b00000000000000000000000000100000 `
b00000000000000000000000000000001 b
b00000000000000000000000000000010 c
b00000000000000000000000000000011 d
b00000000000000000000000000000100 e
b00000000000000000000000000000101 f
b00000000000000000000000000000110 g
b00000000000000000000000000000111 h
b00000000000000000000000000001000 i
b00000000000000000000000000001001 j
b00000000000000000000000000001010 k
b00000000000000000000000000001011 l
b00000000000000000000000000001100 m
b00000000000000000000000000001101 n
b00000000000000000000000000001110 o
b00000000000000000000000000001111 p
b00000000000000000000000000010000 q
b00000000000000000000000000010001 r
b00000000000000000000000000010010 s
b00000000000000000000000000010011 t
b00000000000000000000000000010100 u
b00000000000000000000000000010101 v
b00000000000000000000000000010110 w
b00000000000000000000000000010111 x
b00000000000000000000000000011000 y
b00000000000000000000000000011001 z
b00000000000000000000000000011010 {
b00000000000000000000000000011011 |
b00000000000000000000000000011100 }
b00000000000000000000000000011101 ~
b00000000000000000000000000011110 !!
b00000000000000000000000000011111 "!
0-!
01!
02!
b000 =!
1?!
0@!
b00000000010000000000000000000100 E!
#6
0?!
#7
1?!
#8
0?!
#9
1?!
#10
0?!
1@!
#11
b00000000010000000000000000000100 #
b00000000010000000000000000000000 $
b00000000010000000000000000000100 '
b00000000000000000000000010010011 (
b00000000000000001000000110010011 )
b000 ;
b00000000010000000000000000001000 M
b0010011 P
b00001 U
b00000000000000000000000000000001 [
b00000000000000000000100000000000 \
b00000000000001 _
1-!
11!
12!
b101 =!
1?!
b00000000010000000000000000001000 E!
#12
0?!
#13
b00000000010000000000000000001000 #
b00000000010000000000000000000100 $
b00000000010000000000000000000000 %
b00000000010000000000000000001000 '
b00000000000000001000000110010011 (
b00000000000000000000111010010011 )
b00000000010000000000000000000100 0
b00001 3
14
15
b101 6
1:
b000 <
b00000000010000000000000000000000 J
b00000000010000000000000000001100 M
b00000000000000000000000000000001 N
b00001 S
b00011 U
b00001 V
b00000000000000000000000000000011 [
b00000000000000000000100000000010 \
b00000000000000001000000000000000 ]
b00000000000000001000000000000000 ^
b00000000000010 _
1?!
b00000000010000000000000000001100 E!
#14
0?!
#15
b00000000010000000000000000001100 #
b00000000010000000000000000001000 $
b00000000010000000000000000000100 %
b00000000010000000000000000000000 &
b00000000010000000000000000001100 '
b00000000000000000000111010010011 (
b00000000001000000000111000010011 )
b00000000000000000000000000000001 ,
b00000000010000000000000000001000 0
b00001 2
b00011 3
b00001 =
b00000000010000000000000000000000 >
1C
b00000000010000000000000000000100 J
b00000000010000000000000000010000 M
b00000000000000000000000000000000 N
b00000 S
b11101 U
b00011 V
b10 X
b00000000000000000000000000011101 [
b00000000000000000000100000011100 \
b00000000000000000000000000000000 ]
b00000000000000000000000000000000 ^
b00000000000011 _
1?!
b00000000010000000000000000010000 E!
#16
0?!
#17
b00000000010000000000000000010000 #
b00000000010000000000000000001100 $
b00000000010000000000000000001000 %
b00000000010000000000000000000100 &
b00000000010000000000000000010000 '
b00000000001000000000111000010011 (
b00100111110100011001110001100011 )
b00000000000000000000000000000010 +
b00000000000000000000000000000000 ,
b00000000010000000000000000001100 0
b00000 2
b11101 3
b00011 =
b00000000010000000000000000000100 >
b00001 F
1I
b00000000010000000000000000001000 J
b00000000010000000000000000010100 M
b00000000000000000000000000000010 N
b00010 T
b11100 U
b11101 V
b00 X
b00000000000000000000000000000010 Z
b00000000000000000000000000011100 [
b00000000000000000000000000011100 \
b00000000001000000000000000000000 ]
b00000000000000000000000000000010 ^
b00000000000100 _
14!
1?!
b00000000010000000000000000010100 E!
#18
0?!
#19
b00000000010000000000000000010100 #
b00000000010000000000000000010000 $
b00000000010000000000000000001100 %
b00000000010000000000000000001000 &
b00000000010000000000000000010100 '
b00100111110100011001110001100011 (
b00000000000100000000000010010011 )
b00000000000000000000000000000010 *
b00000000000000000000001001111000 +
b00000000000000000000000000000010 -
b00000000010000000000000000010000 0
b00010 1
b11100 3
b11101 =
b00000000010000000000000000001000 >
b00011 F
b00000000010000000000000000001110 J
b00000000010000000000000000011000 M
b00000000000000000000001001111011 N
b1100011 P
b001 Q
b0010011 R
b00011 S
b11101 T
b11000 U
b11100 V
b00000000000000000000001001111101 Z
b00000000000000000000001001111000 [
b00000000000000000000001001111000 \
b00100111110100011001000000000000 ]
b00000000000000011001101001111100 ^
b00000000000101 _
b00000000000000000000000000000000 b
b00000000000000000000000000000010 *!
b00000000000000000000000000000010 +!
b00000000000000000000000000000010 ,!
0-!
01!
02!
16!
17!
b010 =!
1?!
b00000000010000000000000000011000 E!
#20
0?!
#21
b00000000010000000000000000011000 #
b00000000010000000000000000010100 $
b00000000010000000000000000010000 %
b00000000010000000000000000001100 &
b00000000010000000000000000011000 '
b00000000000100000000000010010011 (
b00000000000100001000000110010011 )
b00000000000000000000001001111000 *
b00000000000000000000000000000001 +
b00000000000000000000000000011101 -
b001 .
b0010011 /
b00000000010000000000000000010100 0
b11101 1
b00011 2
b11000 3
04
05
b010 6
18
0:
b001 ;
b11100 =
b00000000010000000000000000001110 >
b00000000000000000000000000000010 @
b11101 F
b00000000010000000000001010001000 J
b00000000010000000000000000011100 M
b00000000000000000000000000000001 N
b0010011 P
b000 Q
b0000000 R
b00000 S
b00001 T
b00001 U
b11101 V
b0001 W
b01 Y
b00000000000000000000000000000001 Z
b00000000000000000000000000000001 [
b00000000000000000000100000000000 \
b00000000000100000000000000000000 ]
b00000000000000000000100000000000 ^
b00000000000110 _
b00000000000000000000000000000000 d
b00000000000000000000000000000010 %!
b00000000000000000000000000000010 &!
b00000000000000000000000000000000 *!
b00000000000000000000000000000000 +!
b00000000000000000000000000000000 ,!
1-!
11!
12!
06!
07!
b101 =!
1?!
b00000000000000000000000000000010 B!
b00000000000000000000000000000010 C!
b00000000010000000000000000011100 E!
1F!
#22
0?!
#23
b00000000010000000000000000011100 #
b00000000010000000000000000011000 $
b00000000010000000000000000010100 %
b00000000010000000000000000010000 &
b00000000010000000000000000011100 '
b00000000000100001000000110010011 (
b00000000001000000000111010010011 )
b00000000000000000000000000000001 *
b00000000000000000000000000000000 -
b000 .
b0000000 /
b00000000010000000000000000011000 0
b00001 1
b00000 2
b00001 3
14
15
b101 6
08
1:
b000 ;
b001 <
b11101 =
b00000000010000000000001010001000 >
1?
b00000000000000000000000000000000 @
1B
0C
b11100 F
b00000000000000000000000000000010 G
b00000000010000000000000000010101 J
b00000000000000000000000000000010 L
b00000000010000000000000000100000 M
b00000000000000000000000000000010 N
b00001 S
b00011 U
b00001 V
b0000 W
b00 Y
b00000000000000000000000000000011 [
b00000000000000000000100000000010 \
b00000000000100001000000000000000 ]
b00000000000000001000100000000000 ^
b00000000000111 _
b00000000000000000000000000000000 ~
b00000000000000000000000000000000 %!
b00000000000000000000000000000000 &!
b00000000000000000000000000000001 *!
b00000000000000000000000000000001 +!
1?!
b00000000000000000000000000000000 B!
b00000000000000000000000000000000 C!
b00000000010000000000000000100000 E!
0F!
#24
0?!
#25
b00000000010000000000000000100000 #
b00000000010000000000000000011100 $
b00000000010000000000000000011000 %
b00000000010000000000000000010100 &
b00000000010000000000000000100000 '
b00000000001000000000111010010011 (
b00000000001100000000111000010011 )
b00000000000000000000000000000010 +
b00000000010000000000000000011100 0
b00001 2
b00011 3
b000 <
b00001 =
b00000000010000000000000000010101 >
0?
0B
1C
b11101 F
b00000000000000000000000000000000 G
0I
b00000000010000000000000000011001 J
b00000000000000000000000000000000 L
b00000000010000000000000000100100 M
b00000 S
b00010 T
b11101 U
b00011 V
b10 X
b10 Y
b00000000000000000000000000000010 Z
b00000000000000000000000000011101 [
b00000000000000000000100000011100 \
b00000000001000000000000000000000 ]
b00000000000000000000000000000010 ^
b00000000001000 _
b00000000000000000000000000000010 }
b00000000000000000000000000000001 %!
b00000000000000000000000000000001 )!
b00000000000000000000000000000010 +!
b00000000000000000000000000000001 ,!
04!
1?!
b00000000000000000000000000000001 B!
b00000000010000000000000000100100 E!
#26
0?!
#27
b00000000010000000000000000100100 #
b00000000010000000000000000100000 $
b00000000010000000000000000011100 %
b00000000010000000000000000011000 &
b00000000010000000000000000100100 '
b00000000001100000000111000010011 (
b00100111110100011001001001100011 )
b00000000000000000000000000000010 *
b00000000000000000000000000000011 +
b00000000000000000000000000000010 -
b00000000010000000000000000100000 0
b00010 1
b00000 2
b11101 3
b00011 =
b00000000010000000000000000011001 >
b00000000000000000000000000000001 @
b00001 F
b00000000000000000000000000000001 G
1I
b00000000010000000000000000011110 J
b00000000000000000000000000000001 L
b00000000010000000000000000101000 M
b00000000000000000000000000000011 N
b00011 T
b11100 U
b11101 V
b00 X
b00 Y
b00000000000000000000000000000011 Z
b00000000000000000000000000011100 [
b00000000000000000000000000011100 \
b00000000001100000000000000000000 ]
b00000000000000000000100000000010 ^
b00000000001001 _
b00000000000000000000000000000010 %!
b00000000000000000000000000000001 &!
b00000000000000000000000000000000 )!
b00000000000000000000000000000010 *!
b00000000000000000000000000000010 ,!
14!
1?!
b00000000000000000000000000000010 B!
b00000000000000000000000000000001 C!
b00000000010000000000000000101000 E!
#28
0?!
#29
b00000000010000000000000000101000 #
b00000000010000000000000000100100 $
b00000000010000000000000000100000 %
b00000000010000000000000000011100 &
b00000000010000000000000000101000 '
b00100111110100011001001001100011 (
b00000000001100000000000010010011 )
b00000000000000000000000000000011 *
b00000000000000000000001001100100 +
b00000000000000000000000000000000 -
b00000000010000000000000000100100 0
b00011 1
b11100 3
b11101 =
b00000000010000000000000000011110 >
b00000000000000000000000000000010 @
b00011 F
b00000000000000000000000000000010 G
b00000000010000000000000000100011 J
b00000000000000000000000000000010 L
b00000000010000000000000000101100 M
b00000000000000000000001001100111 N
b1100011 P
b001 Q
b0010011 R
b00011 S
b11101 T
b00100 U
b11100 V
b01 Y
b00000000000000000000001001111101 Z
b00000000000000000000001001100100 [
b00000000000000000000001001100100 \
b00100111110100011001000000000000 ]
b00000000000000011001101001111100 ^
b00000000001010 _
b00000000000000000000000000000001 b
b00000000000000000000000000000010 &!
b00000000000000000000000000000011 *!
b00000000000000000000000000000011 +!
0-!
01!
02!
16!
17!
b010 =!
1?!
b00000000000000000000000000000010 C!
b00000000010000000000000000101100 E!
#30
0?!
#31
b00000000010000000000000000101100 #
b00000000010000000000000000101000 $
b00000000010000000000000000100100 %
b00000000010000000000000000100000 &
b00000000010000000000000000101100 '
b00000000001100000000000010010011 (
b00000000011100001000000110010011 )
b00000000000000000000001001100100 *
b00000000000000000000000000000011 +
b00000000000000000000000000000010 ,
b001 .
b0010011 /
b00000000010000000000000000101000 0
b11101 1
b00011 2
b00100 3
04
05
b010 6
18
0:
b001 ;
b11100 =
b00000000010000000000000000100011 >
b11101 F
b00000000010000000000001010001000 J
b00000000010000000000000000110000 M
b00000000000000000000000000000011 N
b0010011 P
b000 Q
b0000000 R
b00000 S
b00011 T
b00001 U
b11101 V
b0001 W
b00000000000000000000000000000011 Z
b00000000000000000000000000000001 [
b00000000000000000000100000000000 \
b00000000001100000000000000000000 ]
b00000000000000000000100000000010 ^
b00000000001011 _
b00000000000000000000000000000010 d
b00000000000000000000000000000011 %!
b00000000000000000000000000000010 )!
b00000000000000000000000000000010 *!
b00000000000000000000000000000000 +!
1-!
11!
12!
06!
07!
b101 =!
1?!
b00000000000000000000000000000011 B!
b00000000010000000000000000110000 E!
1F!
#32
0?!
#33
b00000000010000000000000000110000 #
b00000000010000000000000000101100 $
b00000000010000000000000000101000 %
b00000000010000000000000000100100 &
b00000000010000000000000000110000 '
b00000000011100001000000110010011 (
b00000000101000000000111010010011 )
b00000000000000000000000000000011 *
b00000000000000000000000000000111 +
b00000000000000000000000000000000 ,
b00000000000000000000000000000010 -
b000 .
b0000000 /
b00000000010000000000000000101100 0
b00011 1
b00000 2
b00001 3
14
15
b101 6
08
1:
b000 ;
b001 <
b11101 =
b00000000010000000000001010001000 >
1?
1B
0C
b11100 F
b00000000000000000000000000000011 G
b00000000010000000000000000101011 J
b00000000000000000000000000000011 L
b00000000010000000000000000110100 M
b00000000000000000000000000001000 N
b00001 S
b00111 T
b00011 U
b00001 V
b0000 W
b00 Y
b00000000000000000000000000000111 Z
b00000000000000000000000000000011 [
b00000000000000000000100000000010 \
b00000000011100001000000000000000 ]
b00000000000000001000100000000110 ^
b00000000001100 _
b00000000000000000000000000000010 ~
b00000000000000000000000000000000 %!
b00000000000000000000000000000000 )!
b00000000000000000000000000000011 *!
b00000000000000000000000000000011 +!
1?!
b00000000000000000000000000000000 B!
b00000000010000000000000000110100 E!
0F!
#34
0?!
#35
b00000000010000000000000000110100 #
b00000000010000000000000000110000 $
b00000000010000000000000000101100 %
b00000000010000000000000000101000 &
b00000000010000000000000000110100 '
b00000000101000000000111010010011 (
b00000000010000000000111000010011 )
b00000000000000000000000000000111 *
b00000000000000000000000000001010 +
b00000000000000000000000000000001 ,
b00000000000000000000000000000111 -
b00000000010000000000000000110000 0
b00111 1
b00001 2
b00011 3
b000 <
b00001 =
b00000000010000000000000000101011 >
0?
0B
1C
b11101 F
b00000000000000000000000000000000 G
0I
b00000000010000000000000000110011 J
b00000000000000000000000000000000 L
b00000000010000000000000000111000 M
b00000000000000000000000000001010 N
b00000 S
b01010 T
b11101 U
b00011 V
b10 X
b00000000000000000000000000001010 Z
b00000000000000000000000000011101 [
b00000000000000000000100000011100 \
b00000000101000000000000000000000 ]
b00000000000000000000000000001010 ^
b00000000001101 _
b00000000000000000000000000000011 }
b00000000000000000000000000000011 %!
b00000000000000000000000000000011 )!
b00000000000000000000000000000111 *!
b00000000000000000000000000001010 +!
b00000000000000000000000000000111 ,!
04!
1?!
b00000000000000000000000000000011 B!
b00000000010000000000000000111000 E!
#36
0?!
#37
b00000000010000000000000000111000 #
b00000000010000000000000000110100 $
b00000000010000000000000000110000 %
b00000000010000000000000000101100 &
b00000000010000000000000000111000 '
b00000000010000000000111000010011 (
b00100101110100011001100001100011 )
b00000000000000000000000000001010 *
b00000000000000000000000000000100 +
b00000000000000000000000000000000 ,
b00000000000000000000000000001010 -
b00000000010000000000000000110100 0
b01010 1
b00000 2
b11101 3
b00011 =
b00000000010000000000000000110011 >
b00000000000000000000000000000111 @
b00001 F
b00000000000000000000000000000011 G
1I
b00000000010000000000000000111010 J
b00000000000000000000000000000011 L
b00000000010000000000000000111100 M
b00000000000000000000000000000100 N
b00100 T
b11100 U
b11101 V
b00 X
b00000000000000000000000000000100 Z
b00000000000000000000000000011100 [
b00000000000000000000000000011100 \
b00000000010000000000000000000000 ]
b00000000000000000000000000000100 ^
b00000000001110 _
b00000000000000000000000000001010 %!
b00000000000000000000000000000111 &!
b00000000000000000000000000000000 )!
b00000000000000000000000000001010 *!
b00000000000000000000000000001010 ,!
14!
b000000000000010 >!
1?!
b00000000000000000000000000001010 B!
b00000000000000000000000000000111 C!
b00000000010000000000000000111100 E!
#38
0?!
