testbench/simx.vcd
$version Generated by VerilatedVcd $end
$date Fri May  5 16:51:28 2023
 $end
$timescale   1ps $end

 $scope module TOP $end
  $var wire 32 A! MemAddr [31:0] $end
  $var wire  1 @! MemWriteEnable $end
  $var wire 32 B! WriteData [31:0] $end
  $var wire  1 >! clock $end
  $var wire  1 ?! reset $end
  $scope module toplevel $end
   $var wire 32 A! MemAddr [31:0] $end
   $var wire  1 @! MemWriteEnable $end
   $var wire 32 B! WriteData [31:0] $end
   $var wire  1 >! clock $end
   $var wire  1 ?! reset $end
   $scope module cpu $end
    $var wire 32 (! ALUInA [31:0] $end
    $var wire 32 )! ALUInB [31:0] $end
    $var wire  4 V ALUOp [3:0] $end
    $var wire 32 *! ALUOut [31:0] $end
    $var wire  1 0! ALUSrc $end
    $var wire  3 <! ALUcntrl [2:0] $end
    $var wire  1 6! Branch $end
    $var wire 32 I BranchALUOut [31:0] $end
    $var wire  1 5! BranchNZ $end
    $var wire  1 4! BranchZ $end
    $var wire  1 3! CPU_RegWrite $end
    $var wire 32 C! DMemOut [31:0] $end
    $var wire 32 $! EXMEM_ALUOut [31:0] $end
    $var wire 32 = EXMEM_BranchALUOut [31:0] $end
    $var wire  1 A EXMEM_BranchNZ $end
    $var wire  1 @ EXMEM_BranchZ $end
    $var wire  1 &! EXMEM_MemRead $end
    $var wire  1 C EXMEM_MemToReg $end
    $var wire  1 '! EXMEM_MemWrite $end
    $var wire 32 ? EXMEM_MemWriteData [31:0] $end
    $var wire 32 % EXMEM_PC [31:0] $end
    $var wire  1 B EXMEM_RegWrite $end
    $var wire  5 < EXMEM_RegWriteAddr [4:0] $end
    $var wire  1 > EXMEM_Zero $end
    $var wire  3 : EXMEM_funct3 [2:0] $end
    $var wire  1 4 IDEX_ALUSrc $end
    $var wire  3 5 IDEX_ALUcntrl [2:0] $end
    $var wire  1 7 IDEX_BranchNZ $end
    $var wire  1 6 IDEX_BranchZ $end
    $var wire  1 "! IDEX_MemRead $end
    $var wire  1 8 IDEX_MemToReg $end
    $var wire  1 #! IDEX_MemWrite $end
    $var wire 32 $ IDEX_PC [31:0] $end
    $var wire 32 / IDEX_PCplus4 [31:0] $end
    $var wire  1 3 IDEX_RegDst $end
    $var wire  1 9 IDEX_RegWrite $end
    $var wire  3 - IDEX_funct3 [2:0] $end
    $var wire  7 . IDEX_funct7 [6:0] $end
    $var wire  5 2 IDEX_instr_rd [4:0] $end
    $var wire  5 1 IDEX_instr_rs1 [4:0] $end
    $var wire  5 0 IDEX_instr_rs2 [4:0] $end
    $var wire 32 + IDEX_rdA [31:0] $end
    $var wire 32 , IDEX_rdB [31:0] $end
    $var wire 32 ) IDEX_signExtend [31:0] $end
    $var wire 32 & IFID_PCplus4 [31:0] $end
    $var wire 32 ' IFID_instr [31:0] $end
    $var wire  1 2! Jump $end
    $var wire 32 M JumpAddress [31:0] $end
    $var wire 32 F MEMWB_ALUOut [31:0] $end
    $var wire 32 D MEMWB_DMemOut [31:0] $end
    $var wire  1 G MEMWB_MemToReg $end
    $var wire  1 H MEMWB_RegWrite $end
    $var wire  5 E MEMWB_RegWriteAddr [4:0] $end
    $var wire  3 ; MEMWB_funct3 [2:0] $end
    $var wire 32 A! MemAddr [31:0] $end
    $var wire 32 J MemOut [31:0] $end
    $var wire  1 -! MemRead $end
    $var wire  1 /! MemToReg $end
    $var wire  1 .! MemWrite $end
    $var wire 32 %! MemWriteData [31:0] $end
    $var wire  1 @! MemWriteEnable $end
    $var wire 32 # PC [31:0] $end
    $var wire  1 N PCSrc $end
    $var wire 32 D! PC_new [31:0] $end
    $var wire 32 L PCplus4 [31:0] $end
    $var wire  1 ,! RegDst $end
    $var wire  1 1! RegWrite $end
    $var wire  5 U RegWriteAddr [4:0] $end
    $var wire 32 B! WriteData [31:0] $end
    $var wire  1 E! Zero $end
    $var wire  1 9! bubble_exmem $end
    $var wire  1 8! bubble_idex $end
    $var wire  1 7! bubble_ifid $end
    $var wire  1 F! bubble_memwb $end
    $var wire  2 W bypassA [1:0] $end
    $var wire  2 X bypassB [1:0] $end
    $var wire 32 +! bypassOutB [31:0] $end
    $var wire  1 >! clock $end
    $var wire  3 P funct3 [2:0] $end
    $var wire  7 Q funct7 [6:0] $end
    $var wire 32 [ imm_b [31:0] $end
    $var wire 32 Y imm_i [31:0] $end
    $var wire 32 ] imm_j [31:0] $end
    $var wire 32 Z imm_s [31:0] $end
    $var wire 32 \ imm_u [31:0] $end
    $var wire 32 ( instr [31:0] $end
    $var wire  5 T instr_rd [4:0] $end
    $var wire  5 R instr_rs1 [4:0] $end
    $var wire  5 S instr_rs2 [4:0] $end
    $var wire  7 O opcode [6:0] $end
    $var wire  1 ?! reset $end
    $var wire 32 * signExtend [31:0] $end
    $var wire 32 K wRegData [31:0] $end
    $var wire  1 G! write_exmem $end
    $var wire  1 G! write_idex $end
    $var wire  1 :! write_ifid $end
    $var wire  1 G! write_memwb $end
    $var wire  1 ;! write_pc $end
    $scope module branch_alu $end
     $var wire 32 I! N [31:0] $end
     $var wire 32 K! PC [31:0] $end
     $var wire 32 / inA [31:0] $end
     $var wire 32 ) inB [31:0] $end
     $var wire  4 J! op [3:0] $end
     $var wire 32 I out [31:0] $end
     $var wire  1 F! zero $end
    $upscope $end
    $scope module control_alu $end
     $var wire  4 V ALUOp [3:0] $end
     $var wire  3 5 ALUcntrl [2:0] $end
     $var wire  3 - funct3 [2:0] $end
     $var wire  7 . funct7 [6:0] $end
    $upscope $end
    $scope module control_branch $end
     $var wire  1 6! Branch $end
     $var wire  1 5! BranchNZ $end
     $var wire  1 4! BranchZ $end
     $var wire  3 P funct3 [2:0] $end
    $upscope $end
    $scope module control_bypass_ex $end
     $var wire  2 W bypassA [1:0] $end
     $var wire  2 X bypassB [1:0] $end
     $var wire  5 < exmem_rd [4:0] $end
     $var wire  1 B exmem_regwrite $end
     $var wire  5 1 idex_rs [4:0] $end
     $var wire  5 0 idex_rt [4:0] $end
     $var wire  5 E memwb_rd [4:0] $end
     $var wire  1 H memwb_regwrite $end
    $upscope $end
    $scope module control_main $end
     $var wire  1 0! ALUSrc $end
     $var wire  3 <! ALUcntrl [2:0] $end
     $var wire  1 6! Branch $end
     $var wire  1 2! Jump $end
     $var wire  1 -! MemRead $end
     $var wire  1 /! MemToReg $end
     $var wire  1 .! MemWrite $end
     $var wire  1 ,! RegDst $end
     $var wire  1 1! RegWrite $end
     $var wire  7 O opcode [6:0] $end
    $upscope $end
    $scope module control_mem_in $end
     $var wire 32 ? ALUin [31:0] $end
     $var wire  3 : mem_select [2:0] $end
     $var wire 32 %! out [31:0] $end
    $upscope $end
    $scope module control_mem_out $end
     $var wire 32 D DMemOut [31:0] $end
     $var wire  3 ; mem_select [2:0] $end
     $var wire 32 J out [31:0] $end
    $upscope $end
    $scope module control_stall_id $end
     $var wire  1 B EXMEM_RegWrite $end
     $var wire  1 9 IDEX_RegWrite $end
     $var wire  1 2! Jump $end
     $var wire  1 H MEMWB_RegWrite $end
     $var wire  1 N PCSrc $end
     $var wire  1 9! bubble_exmem $end
     $var wire  1 8! bubble_idex $end
     $var wire  1 7! bubble_ifid $end
     $var wire  1 F! bubble_memwb $end
     $var wire  5 < exmem_rd [4:0] $end
     $var wire  1 "! idex_memread $end
     $var wire  5 2 idex_rd [4:0] $end
     $var wire  5 0 idex_rt [4:0] $end
     $var wire  5 T ifid_rd [4:0] $end
     $var wire  5 R ifid_rs [4:0] $end
     $var wire  5 S ifid_rt [4:0] $end
     $var wire  5 E memwb_rd [4:0] $end
     $var wire  1 G! write_exmem $end
     $var wire  1 G! write_idex $end
     $var wire  1 :! write_ifid $end
     $var wire  1 G! write_memwb $end
     $var wire  1 ;! write_pc $end
    $upscope $end
    $scope module cpu_DMem $end
     $var wire 15 =! addr [14:0] $end
     $var wire  1 >! clock $end
     $var wire 32 %! din [31:0] $end
     $var wire 32 C! dout [31:0] $end
     $var wire  1 &! ren $end
     $var wire  1 ?! reset $end
     $var wire  1 '! wen $end
    $upscope $end
    $scope module cpu_IMem $end
     $var wire 14 ^ addr [13:0] $end
     $var wire  1 >! clock $end
     $var wire 32 H! din [31:0] $end
     $var wire 32 ( dout [31:0] $end
     $var wire  1 :! ren $end
     $var wire  1 ?! reset $end
     $var wire  1 F! wen $end
    $upscope $end
    $scope module cpu_alu $end
     $var wire 32 I! N [31:0] $end
     $var wire 32 % PC [31:0] $end
     $var wire 32 (! inA [31:0] $end
     $var wire 32 )! inB [31:0] $end
     $var wire  4 V op [3:0] $end
     $var wire 32 *! out [31:0] $end
     $var wire  1 E! zero $end
    $upscope $end
    $scope module cpu_regs $end
     $var wire  1 >! clock $end
     $var wire 32 ` data(0) [31:0] $end
     $var wire 32 a data(1) [31:0] $end
     $var wire 32 j data(10) [31:0] $end
     $var wire 32 k data(11) [31:0] $end
     $var wire 32 l data(12) [31:0] $end
     $var wire 32 m data(13) [31:0] $end
     $var wire 32 n data(14) [31:0] $end
     $var wire 32 o data(15) [31:0] $end
     $var wire 32 p data(16) [31:0] $end
     $var wire 32 q data(17) [31:0] $end
     $var wire 32 r data(18) [31:0] $end
     $var wire 32 s data(19) [31:0] $end
     $var wire 32 b data(2) [31:0] $end
     $var wire 32 t data(20) [31:0] $end
     $var wire 32 u data(21) [31:0] $end
     $var wire 32 v data(22) [31:0] $end
     $var wire 32 w data(23) [31:0] $end
     $var wire 32 x data(24) [31:0] $end
     $var wire 32 y data(25) [31:0] $end
     $var wire 32 z data(26) [31:0] $end
     $var wire 32 { data(27) [31:0] $end
     $var wire 32 | data(28) [31:0] $end
     $var wire 32 } data(29) [31:0] $end
     $var wire 32 c data(3) [31:0] $end
     $var wire 32 ~ data(30) [31:0] $end
     $var wire 32 !! data(31) [31:0] $end
     $var wire 32 d data(4) [31:0] $end
     $var wire 32 e data(5) [31:0] $end
     $var wire 32 f data(6) [31:0] $end
     $var wire 32 g data(7) [31:0] $end
     $var wire 32 h data(8) [31:0] $end
     $var wire 32 i data(9) [31:0] $end
     $var wire 32 _ i [31:0] $end
     $var wire  5 R raA [4:0] $end
     $var wire  5 S raB [4:0] $end
     $var wire 32 + rdA [31:0] $end
     $var wire 32 , rdB [31:0] $end
     $var wire  1 ?! reset $end
     $var wire  5 E wa [4:0] $end
     $var wire 32 K wd [31:0] $end
     $var wire  1 3! wen $end
    $upscope $end
    $scope module signExtendUnit $end
     $var wire 32 [ imm_b [31:0] $end
     $var wire 32 Y imm_i [31:0] $end
     $var wire 32 ] imm_j [31:0] $end
     $var wire 32 Z imm_s [31:0] $end
     $var wire 32 \ imm_u [31:0] $end
     $var wire  7 O opcode [6:0] $end
     $var wire 32 * out [31:0] $end
    $upscope $end
   $upscope $end
  $upscope $end
 $upscope $end
$enddefinitions $end


#0
b00000000000000000000000000000000 #
b00000000000000000000000000000000 $
b00000000000000000000000000000000 %
b00000000000000000000000000000000 &
b00000000000000000000000000000000 '
b00000000000100000000000010010011 (
b00000000000000000000000000000000 )
b00000000000000000000000000000000 *
b00000000000000000000000000000000 +
b00000000000000000000000000000000 ,
b000 -
b0000000 .
b00000000000000000000000000000000 /
b00000 0
b00000 1
b00000 2
03
04
b000 5
06
07
08
09
b000 :
b000 ;
b00000 <
b00000000000000000000000000000000 =
0>
b00000000000000000000000000000000 ?
0@
0A
0B
0C
b00000000000000000000000000000000 D
b00000 E
b00000000000000000000000000000000 F
0G
0H
b00000000000000000000000000000000 I
b00000000000000000000000000000000 J
b00000000000000000000000000000000 K
b00000000000000000000000000000100 L
b00000000000000000000000000000000 M
0N
b0000000 O
b000 P
b0000000 Q
b00000 R
b00000 S
b00000 T
b00000 U
b0000 V
b00 W
b00 X
b00000000000000000000000000000000 Y
b00000000000000000000000000000000 Z
b00000000000000000000000000000000 [
b00000000000000000000000000000000 \
b00000000000000000000000000000000 ]
b00000000000000 ^
b00000000000000000000000000000000 _
b00000000000000000000000000000000 `
b00000000000000000000000000000000 a
b00000000000000000000000000000000 b
b00000000000000000000000000000000 c
b00000000000000000000000000000000 d
b00000000000000000000000000000000 e
b00000000000000000000000000000000 f
b00000000000000000000000000000000 g
b00000000000000000000000000000000 h
b00000000000000000000000000000000 i
b00000000000000000000000000000000 j
b00000000000000000000000000000000 k
b00000000000000000000000000000000 l
b00000000000000000000000000000000 m
b00000000000000000000000000000000 n
b00000000000000000000000000000000 o
b00000000000000000000000000000000 p
b00000000000000000000000000000000 q
b00000000000000000000000000000000 r
b00000000000000000000000000000000 s
b00000000000000000000000000000000 t
b00000000000000000000000000000000 u
b00000000000000000000000000000000 v
b00000000000000000000000000000000 w
b00000000000000000000000000000000 x
b00000000000000000000000000000000 y
b00000000000000000000000000000000 z
b00000000000000000000000000000000 {
b00000000000000000000000000000000 |
b00000000000000000000000000000000 }
b00000000000000000000000000000000 ~
b00000000000000000000000000000000 !!
0"!
0#!
b00000000000000000000000000000000 $!
b00000000000000000000000000000000 %!
0&!
0'!
b00000000000000000000000000000000 (!
b00000000000000000000000000000000 )!
b00000000000000000000000000000000 *!
b00000000000000000000000000000000 +!
0,!
0-!
0.!
0/!
00!
01!
02!
03!
04!
05!
06!
07!
08!
09!
1:!
1;!
b000 <!
b000000000000000 =!
0>!
1?!
0@!
b00000000000000000000000000000000 A!
b00000000000000000000000000000000 B!
b00000000000000000000000000000000 C!
b00000000000000000000000000000100 D!
0E!
0F!
1G!
b00000000000000000000000000000000 H!
b00000000000000000000000000100000 I!
b0000 J!
b00000000000000000000000000000000 K!
#1
b00000000000000000000000000000100 #
b00000000000000000000000000000100 &
b00000000000100000000000010010011 '
b00000000000100000000000100010011 (
b00000000000000000000000000000001 *
b00000000000000000000000000001000 L
b00000000000000000000000000000001 M
b0010011 O
b00001 S
b00001 T
b00000000000000000000000000000001 Y
b00000000000000000000000000000001 Z
b00000000000000000000100000000000 [
b00000000000100000000000000000000 \
b00000000000000000000100000000000 ]
b00000000000001 ^
1,!
10!
11!
1>!
b00000000000000000000000000001000 D!
#2
0>!
#3
b00000000000000000000000000001000 #
b00000000000000000000000000000100 $
b00000000000000000000000000001000 &
b00000000000100000000000100010011 '
b00000000001000001000000110110011 (
b00000000000000000000000000000001 )
b00000000000000000000000000000100 /
b00001 0
b00001 2
13
14
19
b00000000000000000000000000000101 I
b00000000000000000000000000001100 L
b00010 T
b00001 U
b00000000000000000000000000000010 Z
b00000000000000000000000000000010 [
b00000000000010 ^
b00000000000000000000000000000001 )!
b00000000000000000000000000000001 *!
1>!
b00000000000000000000000000001100 D!
#4
0>!
#5
b00000000010000000000000000000000 #
b00000000000000000000000000000000 $
b00000000000000000000000000000000 &
b00000000000000000000000000000000 '
b00000000000100000000000010010011 (
b00000000000000000000000000000000 )
b00000000000000000000000000000000 *
b00000000000000000000000000000000 /
b00000 0
b00000 2
03
04
09
b111 :
b111 ;
b00000000000000000000000000000000 I
b00000000010000000000000000000100 L
b00000000000000000000000000000000 M
b0000000 O
b00000 S
b00000 T
b00000 U
b00000000000000000000000000000000 Y
b00000000000000000000000000000000 Z
b00000000000000000000000000000000 [
b00000000000000000000000000000000 \
b00000000000000000000000000000000 ]
b00000000000000 ^
b00000000000000000000000000100000 _
b00000000000000000000000000000001 a
b00000000000000000000000000000010 b
b00000000000000000000000000000011 c
b00000000000000000000000000000100 d
b00000000000000000000000000000101 e
b00000000000000000000000000000110 f
b00000000000000000000000000000111 g
b00000000000000000000000000001000 h
b00000000000000000000000000001001 i
b00000000000000000000000000001010 j
b00000000000000000000000000001011 k
b00000000000000000000000000001100 l
b00000000000000000000000000001101 m
b00000000000000000000000000001110 n
b00000000000000000000000000001111 o
b00000000000000000000000000010000 p
b00000000000000000000000000010001 q
b00000000000000000000000000010010 r
b00000000000000000000000000010011 s
b00000000000000000000000000010100 t
b00000000000000000000000000010101 u
b00000000000000000000000000010110 v
b00000000000000000000000000010111 w
b00000000000000000000000000011000 x
b00000000000000000000000000011001 y
b00000000000000000000000000011010 z
b00000000000000000000000000011011 {
b00000000000000000000000000011100 |
b00000000000000000000000000011101 }
b00000000000000000000000000011110 ~
b00000000000000000000000000011111 !!
b00000000000000000000000000000000 )!
b00000000000000000000000000000000 *!
0,!
00!
01!
1>!
0?!
b00000000010000000000000000000100 D!
#6
0>!
#7
1>!
#8
0>!
#9
1>!
#10
0>!
1?!
#11
b00000000010000000000000000000100 #
b00000000010000000000000000000000 $
b00000000010000000000000000000100 &
b00000000000100000000000010010011 '
b00000000000100000000000100010011 (
b00000000000000000000000000000001 *
b000 :
b00000000010000000000000000001000 L
b00000000000000000000000000000001 M
b0010011 O
b00001 S
b00001 T
b00000000000000000000000000000001 Y
b00000000000000000000000000000001 Z
b00000000000000000000100000000000 [
b00000000000100000000000000000000 \
b00000000000000000000100000000000 ]
b00000000000001 ^
1,!
10!
11!
1>!
b00000000010000000000000000001000 D!
#12
0>!
#13
b00000000010000000000000000001000 #
b00000000010000000000000000000100 $
b00000000010000000000000000000000 %
b00000000010000000000000000001000 &
b00000000000100000000000100010011 '
b00000000001000001000000110110011 (
b00000000000000000000000000000001 )
b00000000000000000000000000000001 ,
b00000000010000000000000000000100 /
b00001 0
b00001 2
13
14
19
b000 ;
b00000000010000000000000000000101 I
b00000000010000000000000000001100 L
b00010 T
b00001 U
b00000000000000000000000000000010 Z
b00000000000000000000000000000010 [
b00000000000010 ^
b00000000000000000000000000000001 )!
b00000000000000000000000000000001 *!
b00000000000000000000000000000001 +!
1>!
b00000000010000000000000000001100 D!
#14
0>!
#15
b00000000010000000000000000001100 #
b00000000010000000000000000001000 $
b00000000010000000000000000000100 %
b00000000010000000000000000001100 &
b00000000001000001000000110110011 '
b00000000001000000000111010010011 (
b00000000000000000000000000000000 *
b00000000010000000000000000001000 /
b00010 2
b00001 <
b00000000010000000000000000000101 =
b00000000000000000000000000000001 ?
1B
b00000000010000000000000000001001 I
b00000000010000000000000000010000 L
b00000000000000000000000000000000 M
b0110011 O
b00001 R
b00010 S
b00011 T
b00010 U
b10 X
b00000000000000000000000000000010 Y
b00000000000000000000000000000011 Z
b00000000000000000000100000000010 [
b00000000001000001000000000000000 \
b00000000000000001000000000000010 ]
b00000000000011 ^
b00000000000000000000000000000001 $!
b00000000000000000000000000000001 %!
00!
1>!
b00000000000000000000000000000001 A!
b00000000000000000000000000000001 B!
b00000000010000000000000000010000 D!
#16
0>!
#17
b00000000010000000000000000010000 #
b00000000010000000000000000001100 $
b00000000010000000000000000001000 %
b00000000010000000000000000010000 &
b00000000001000000000111010010011 '
b00000000001100000000111000010011 (
b00000000000000000000000000000000 )
b00000000000000000000000000000010 *
b00000000000000000000000000000001 +
b00000000000000000000000000000010 ,
b00000000010000000000000000001100 /
b00010 0
b00001 1
b00011 2
04
b00010 <
b00000000010000000000000000001001 =
b00001 E
b00000000000000000000000000000001 F
1H
b00000000010000000000000000001100 I
b00000000000000000000000000000001 K
b00000000010000000000000000010100 L
b00000000000000000000000000000011 M
b0010011 O
b00000 R
b11101 T
b00011 U
b01 W
b00000000000000000000000000011101 Z
b00000000000000000000100000011100 [
b00000000001000000000000000000000 \
b00000000000000000000000000000010 ]
b00000000000100 ^
b00000000000000000000000000000001 (!
b00000000000000000000000000000010 *!
10!
13!
1>!
b00000000010000000000000000010100 D!
#18
0>!
#19
b00000000010000000000000000010100 #
b00000000010000000000000000010000 $
b00000000010000000000000000001100 %
b00000000010000000000000000010100 &
b00000000001100000000111000010011 '
b00000001110100011001010001100011 (
b00000000000000000000000000000010 )
b00000000000000000000000000000011 *
b00000000000000000000000000000000 +
b00000000010000000000000000010000 /
b00000 1
b11101 2
14
b00011 <
b00000000010000000000000000001100 =
b00010 E
b00000000010000000000000000010010 I
b00000000010000000000000000011000 L
b00011 S
b11100 T
b11101 U
b00 W
b01 X
b00000000000000000000000000000011 Y
b00000000000000000000000000011100 Z
b00000000000000000000000000011100 [
b00000000001100000000000000000000 \
b00000000000000000000100000000010 ]
b00000000000101 ^
b00000000000000000000000000000010 $!
b00000000000000000000000000000000 (!
b00000000000000000000000000000010 )!
1>!
b00000000000000000000000000000010 A!
b00000000010000000000000000011000 D!
#20
0>!
#21
b00000000010000000000000000011000 #
b00000000010000000000000000010100 $
b00000000010000000000000000010000 %
b00000000010000000000000000011000 &
b00000001110100011001010001100011 '
b00000001110000000001101001100011 (
b00000000000000000000000000000011 )
b00000000000000000000000000001000 *
b00000000000000000000000000000011 ,
b00000000010000000000000000010100 /
b00011 0
b11100 2
b11101 <
b00000000010000000000000000010010 =
b00011 E
b00000000000000000000000000000010 F
b00000000010000000000000000010111 I
b00000000000000000000000000000010 K
b00000000010000000000000000011100 L
b00000000000000000000000000001000 M
b1100011 O
b001 P
b00011 R
b11101 S
b01000 T
b11100 U
b00000000000000000000000000011101 Y
b00000000000000000000000000001000 Z
b00000000000000000000000000001000 [
b00000001110100011001000000000000 \
b00000000000000011001100000011100 ]
b00000000000110 ^
b00000000000000000000000000000001 b
b00000000000000000000000000000011 )!
b00000000000000000000000000000011 *!
b00000000000000000000000000000010 +!
0,!
00!
01!
15!
16!
b010 <!
1>!
b00000000010000000000000000011100 D!
#22
0>!
#23
b00000000010000000000000000011100 #
b00000000010000000000000000011000 $
b00000000010000000000000000010100 %
b00000000010000000000000000011100 &
b00000001110000000001101001100011 '
b11111111000000000000010100010011 (
b00000000000000000000000000001000 )
b00000000000000000000000000010100 *
b00000000000000000000000000000010 +
b00000000000000000000000000011101 ,
b001 -
b00000000010000000000000000011000 /
b11101 0
b00011 1
b01000 2
03
04
b010 5
17
09
b001 :
b11100 <
b00000000010000000000000000010111 =
b00000000000000000000000000000010 ?
b11101 E
b00000000010000000000000000100000 I
b00000000010000000000000000100000 L
b00000000000000000000000000010110 M
b00000 R
b11100 S
b10100 T
b11101 U
b0001 V
b00000000000000000000000000011100 Y
b00000000000000000000000000010100 Z
b00000000000000000000000000010100 [
b00000001110000000001000000000000 \
b00000000000000000001000000011100 ]
b00000000000111 ^
b00000000000000000000000000000010 c
b00000000000000000000000000000011 $!
b00000000000000000000000000000010 %!
b00000000000000000000000000000010 (!
b00000000000000000000000000000010 )!
b00000000000000000000000000000000 *!
1>!
b00000000000000000000000000000011 A!
b00000000000000000000000000000010 B!
b00000000010000000000000000100000 D!
1E!
#24
0>!
#25
b00000000010000000000000000100000 #
b00000000010000000000000000011100 $
b00000000010000000000000000011000 %
b00000000010000000000000000100000 &
b11111111000000000000010100010011 '
b00000000000000000000010110010011 (
b00000000000000000000000000010100 )
b11111111111111111111111111110000 *
b00000000000000000000000000000000 +
b00000000000000000000000000011100 ,
b00000000010000000000000000011100 /
b11100 0
b00000 1
b10100 2
b001 ;
b11101 <
b00000000010000000000000000100000 =
1>
1A
0B
b11100 E
b00000000000000000000000000000011 F
b00000000010000000000000000110000 I
b00000000000000000000000000000011 K
b00000000010000000000000000100100 L
b11111111111111111111111111110000 M
b0010011 O
b000 P
b1111111 Q
b10000 S
b01010 T
b11100 U
b11111111111111111111111111110000 Y
b11111111111111111111111111101010 Z
b11111111111111111111011111101010 [
b11111111000000000000000000000000 \
b11111111111100000000011111110000 ]
b00000000001000 ^
b00000000000000000000000000000010 }
b00000000000000000000000000000000 $!
b00000000000000000000000000000000 (!
b00000000000000000000000000000011 )!
b11111111111111111111111111111101 *!
b00000000000000000000000000000011 +!
1,!
10!
11!
05!
06!
b000 <!
1>!
b00000000000000000000000000000000 A!
b00000000010000000000000000100100 D!
0E!
#26
0>!
#27
b00000000010000000000000000100100 #
b00000000010000000000000000100000 $
b00000000010000000000000000011100 %
b00000000010000000000000000100100 &
b00000000000000000000010110010011 '
b00000000101101010010000000100011 (
b11111111111111111111111111110000 )
b00000000000000000000000000000000 *
b00000000000000000000000000010000 ,
b000 -
b1111111 .
b00000000010000000000000000100000 /
b10000 0
b01010 2
13
14
b000 5
07
19
b000 :
b11100 <
b00000000010000000000000000110000 =
0>
b00000000000000000000000000000011 ?
b11101 E
b00000000000000000000000000000000 F
0H
b00000000010000000000000000010000 I
b00000000000000000000000000000000 K
b00000000010000000000000000101000 L
b00000000000000000000000000000000 M
1N
b0000000 Q
b00000 S
b01011 T
b01010 U
b00 X
b00000000000000000000000000000000 Y
b00000000000000000000000000001011 Z
b00000000000000000000100000001010 [
b00000000000000000000000000000000 \
b00000000000000000000000000000000 ]
b00000000001001 ^
b00000000000000000000000000000011 |
b11111111111111111111111111111101 $!
b00000000000000000000000000000011 %!
b11111111111111111111111111110000 )!
b00000000000000000000000000010000 *!
b00000000000000000000000000010000 +!
03!
17!
18!
19!
b111111111111111 =!
1>!
b11111111111111111111111111111101 A!
b00000000000000000000000000000011 B!
b00000000010000000000000000110000 D!
#28
0>!
#29
b00000000010000000000000000110000 #
b00000000000000000000000000000000 $
b00000000000000000000000000000000 %
b00000000000000000000000000000000 &
b00000000000000000000000000000000 '
b00000000000100000000010110010011 (
b00000000000000000000000000000000 )
b00000000000000000000000000000000 ,
b0000000 .
b00000000000000000000000000000000 /
b00000 0
b00000 2
03
04
09
b111 :
b000 ;
b00000 <
b00000000000000000000000000000000 =
b00000000000000000000000000000000 ?
0A
b11100 E
b11111111111111111111111111111101 F
b00000000000000000000000000000000 I
b11111111111111111111111111111101 K
b00000000010000000000000000110100 L
0N
b0000000 O
b00000 T
b00000 U
b0000 V
b00000000000000000000000000000000 Z
b00000000000000000000000000000000 [
b00000000001100 ^
b00000000000000000000000000000000 $!
b00000000000000000000000000000000 %!
b00000000000000000000000000000000 )!
b00000000000000000000000000000000 *!
b00000000000000000000000000000000 +!
0,!
00!
01!
07!
08!
09!
b000000000000000 =!
1>!
b00000000000000000000000000000000 A!
b00000000000000000000000000000000 B!
b00000000010000000000000000110100 D!
#30
0>!
#31
b00000000010000000000000000110100 #
b00000000010000000000000000110000 $
b00000000010000000000000000110100 &
b00000000000100000000010110010011 '
b00000000101101010010000000100011 (
b00000000000000000000000000000001 *
b000 :
b111 ;
b00000 E
b00000000000000000000000000000000 F
b00000000000000000000000000000000 K
b00000000010000000000000000111000 L
b00000000000000000000000000000001 M
b0010011 O
b00001 S
b01011 T
b00000000000000000000000000000001 Y
b00000000000000000000000000001011 Z
b00000000000000000000100000001010 [
b00000000000100000000000000000000 \
b00000000000000000000100000000000 ]
b00000000001101 ^
1,!
10!
11!
1>!
b00000000010000000000000000111000 D!
#32
0>!
#33
b00000000010000000000000000111000 #
b00000000010000000000000000110100 $
b00000000010000000000000000110000 %
b00000000010000000000000000111000 &
b00000000101101010010000000100011 '
b11111111010111111111000001101111 (
b00000000000000000000000000000001 )
b00000000000000000000000000000000 *
b00000000000000000000000000000001 ,
b00000000010000000000000000110100 /
b00001 0
b01011 2
13
14
19
b000 ;
b00000000010000000000000000110101 I
b00000000010000000000000000111100 L
b00000000000000000000000000000000 M
b0100011 O
b010 P
b01010 R
b01011 S
b00000 T
b01011 U
b00000000000000000000000000001011 Y
b00000000000000000000000000000000 Z
b00000000000000000000000000000000 [
b00000000101101010010000000000000 \
b00000000000001010010100000001010 ]
b00000000001110 ^
b00000000000000000000000000000001 )!
b00000000000000000000000000000001 *!
b00000000000000000000000000000001 +!
0,!
1.!
01!
b001 <!
1>!
b00000000010000000000000000111100 D!
#34
0>!
#35
b00000000010000000000000000111100 #
b00000000010000000000000000111000 $
b00000000010000000000000000110100 %
b00000000010000000000000000111100 &
b11111111010111111111000001101111 '
b00000000000000000000000000000000 (
b00000000000000000000000000000000 )
b11111111111111111111111111110100 *
b00000000000000000000000000001010 +
b00000000000000000000000000001011 ,
b010 -
b00000000010000000000000000111000 /
b01011 0
b01010 1
b00000 2
03
b001 5
09
b010 :
b01011 <
b00000000010000000000000000110101 =
b00000000000000000000000000000001 ?
1B
b00000000010000000000000000111000 I
b00000000010000000000000001000000 L
b11111111111111111111111111110100 M
b1101111 O
b111 P
b1111111 Q
b11111 R
b10101 S
b10 X
b11111111111111111111111111110101 Y
b11111111111111111111111111100000 Z
b11111111111111111111011111100000 [
b11111111010111111111000000000000 \
b11111111111111111111111111110100 ]
b00000000001111 ^
1#!
b00000000000000000000000000000001 $!
b00000000000000000000000000000001 %!
b00000000000000000000000000001010 (!
b00000000000000000000000000000000 )!
b00000000000000000000000000001010 *!
1,!
0.!
00!
11!
12!
18!
0:!
0;!
b000 <!
1>!
b00000000000000000000000000000001 A!
b00000000000000000000000000000001 B!
b11111111111111111111111111110100 D!
#36
0>!
#37
b00000000000000000000000000000000 $
b00000000010000000000000000111000 %
b00000000000000000000000000011111 +
b00000000000000000000000000010101 ,
b000 -
b00000000000000000000000000000000 /
b00000 0
b00000 1
04
b000 5
b111 :
b010 ;
b00000000010000000000000000111000 =
0B
b01011 E
b00000000000000000000000000000001 F
1H
b00000000000000000000000000000000 I
b00000000000000000000000000000001 K
b00000 U
b00 X
0#!
b00000000000000000000000000001010 $!
1'!
b00000000000000000000000000011111 (!
b00000000000000000000000000010101 )!
b00000000000000000000000000110100 *!
b00000000000000000000000000010101 +!
13!
b000000000000010 =!
1>!
1@!
b00000000000000000000000000001010 A!
#38
0>!
#39
b00000000000000000000000000000000 %
b111 ;
b00000 <
b00000000000000000000000000000000 =
b00000000000000000000000000010101 ?
b00000000000000000000000000001010 F
0H
b00000000000000000000000000001010 K
b00000000000000000000000000000001 k
b00000000000000000000000000110100 $!
b00000000000000000000000000010101 %!
0'!
03!
17!
08!
1:!
1;!
b000000000001101 =!
1>!
0@!
b00000000000000000000000000110100 A!
b00000000000000000000000000010101 B!
#40
0>!
