testbench/sll.vcd
$version Generated by VerilatedVcd $end
$date Thu May 11 16:33:12 2023
 $end
$timescale   1ps $end

 $scope module TOP $end
  $var wire 32 G! MemAddr [31:0] $end
  $var wire  1 F! MemWriteEnable $end
  $var wire 32 H! WriteData [31:0] $end
  $var wire  1 D! clock $end
  $var wire  1 E! reset $end
  $scope module toplevel $end
   $var wire 32 G! MemAddr [31:0] $end
   $var wire  1 F! MemWriteEnable $end
   $var wire 32 H! WriteData [31:0] $end
   $var wire  1 D! clock $end
   $var wire  1 E! reset $end
   $scope module cpu $end
    $var wire 32 ,! ALUInA [31:0] $end
    $var wire 32 -! ALUInB [31:0] $end
    $var wire  4 X ALUOp [3:0] $end
    $var wire 32 .! ALUOut [31:0] $end
    $var wire  1 6! ALUSrc $end
    $var wire  3 @! ALUcntrl [2:0] $end
    $var wire  1 :! Branch $end
    $var wire 32 K! BranchALUOut [31:0] $end
    $var wire 32 J! BranchInA [31:0] $end
    $var wire  1 J CPU_RegWrite $end
    $var wire 32 L! DMemOut [31:0] $end
    $var wire 32 (! EXMEM_ALUOut [31:0] $end
    $var wire  1 P EXMEM_Branch $end
    $var wire 32 @ EXMEM_BranchALUOut [31:0] $end
    $var wire  1 B EXMEM_JumpJALR $end
    $var wire  1 *! EXMEM_MemRead $end
    $var wire  1 E EXMEM_MemToReg $end
    $var wire  1 +! EXMEM_MemWrite $end
    $var wire 32 C EXMEM_MemWriteData [31:0] $end
    $var wire 32 & EXMEM_PC [31:0] $end
    $var wire  1 D EXMEM_RegWrite $end
    $var wire  5 ? EXMEM_RegWriteAddr [4:0] $end
    $var wire  1 A EXMEM_Zero $end
    $var wire  3 = EXMEM_funct3 [2:0] $end
    $var wire  1 6 IDEX_ALUSrc $end
    $var wire  3 : IDEX_ALUcntrl [2:0] $end
    $var wire  1 O IDEX_Branch $end
    $var wire  1 8 IDEX_Jump $end
    $var wire  1 9 IDEX_JumpJALR $end
    $var wire  1 &! IDEX_MemRead $end
    $var wire  1 ; IDEX_MemToReg $end
    $var wire  1 '! IDEX_MemWrite $end
    $var wire 32 % IDEX_PC [31:0] $end
    $var wire 32 1 IDEX_PCplus4 [31:0] $end
    $var wire  1 5 IDEX_RegDst $end
    $var wire  1 < IDEX_RegWrite $end
    $var wire  3 / IDEX_funct3 [2:0] $end
    $var wire  7 0 IDEX_funct7 [6:0] $end
    $var wire  1 7 IDEX_inA_is_PC $end
    $var wire  5 4 IDEX_instr_rd [4:0] $end
    $var wire  5 3 IDEX_instr_rs1 [4:0] $end
    $var wire  5 2 IDEX_instr_rs2 [4:0] $end
    $var wire 32 - IDEX_rdA [31:0] $end
    $var wire 32 . IDEX_rdB [31:0] $end
    $var wire 32 ) IDEX_signExtend [31:0] $end
    $var wire 32 $ IFID_PC [31:0] $end
    $var wire 32 ' IFID_PCplus4 [31:0] $end
    $var wire 32 ( IFID_instr [31:0] $end
    $var wire  1 9! Jump $end
    $var wire 32 N JumpAddress [31:0] $end
    $var wire  1 A! JumpJALR $end
    $var wire 32 H MEMWB_ALUOut [31:0] $end
    $var wire 32 F MEMWB_DMemOut [31:0] $end
    $var wire  1 I MEMWB_MemToReg $end
    $var wire  1 J MEMWB_RegWrite $end
    $var wire  5 G MEMWB_RegWriteAddr [4:0] $end
    $var wire  3 > MEMWB_funct3 [2:0] $end
    $var wire 32 G! MemAddr [31:0] $end
    $var wire 32 K MemOut [31:0] $end
    $var wire  1 3! MemRead $end
    $var wire  1 5! MemToReg $end
    $var wire  1 4! MemWrite $end
    $var wire 32 )! MemWriteData [31:0] $end
    $var wire  1 F! MemWriteEnable $end
    $var wire 32 # PC [31:0] $end
    $var wire  1 7! PCSrc $end
    $var wire 32 M! PC_new [31:0] $end
    $var wire 32 M PCplus4 [31:0] $end
    $var wire  1 2! RegDst $end
    $var wire  1 8! RegWrite $end
    $var wire  5 W RegWriteAddr [4:0] $end
    $var wire 32 H! WriteData [31:0] $end
    $var wire  1 1! Zero $end
    $var wire  1 %! branch_taken $end
    $var wire  1 =! bubble_exmem $end
    $var wire  1 <! bubble_idex $end
    $var wire  1 ;! bubble_ifid $end
    $var wire  1 O! bubble_memwb $end
    $var wire  2 Y bypassA [1:0] $end
    $var wire  2 Z bypassB [1:0] $end
    $var wire 32 /! bypassOutA [31:0] $end
    $var wire 32 0! bypassOutB [31:0] $end
    $var wire  1 D! clock $end
    $var wire  3 R funct3 [2:0] $end
    $var wire  7 S funct7 [6:0] $end
    $var wire 32 ] imm_b [31:0] $end
    $var wire 32 [ imm_i [31:0] $end
    $var wire 32 _ imm_j [31:0] $end
    $var wire 32 \ imm_s [31:0] $end
    $var wire 32 ^ imm_u [31:0] $end
    $var wire  1 $! inA_is_PC $end
    $var wire 32 I! instr [31:0] $end
    $var wire  5 V instr_rd [4:0] $end
    $var wire  5 T instr_rs1 [4:0] $end
    $var wire  5 U instr_rs2 [4:0] $end
    $var wire  7 Q opcode [6:0] $end
    $var wire 32 + rdA [31:0] $end
    $var wire 32 , rdB [31:0] $end
    $var wire  1 E! reset $end
    $var wire 32 * signExtend [31:0] $end
    $var wire 32 L wRegData [31:0] $end
    $var wire  1 P! write_exmem $end
    $var wire  1 P! write_idex $end
    $var wire  1 >! write_ifid $end
    $var wire  1 P! write_memwb $end
    $var wire  1 ?! write_pc $end
    $scope module SignExtendSelector $end
     $var wire 32 ] imm_b [31:0] $end
     $var wire 32 [ imm_i [31:0] $end
     $var wire 32 _ imm_j [31:0] $end
     $var wire 32 \ imm_s [31:0] $end
     $var wire 32 ^ imm_u [31:0] $end
     $var wire  7 Q opcode [6:0] $end
     $var wire 32 * out [31:0] $end
    $upscope $end
    $scope module branch_alu $end
     $var wire 32 R! N [31:0] $end
     $var wire 32 J! inA [31:0] $end
     $var wire 32 ) inB [31:0] $end
     $var wire  4 S! op [3:0] $end
     $var wire 32 K! out [31:0] $end
     $var wire 32 K! out_val [31:0] $end
     $var wire  1 N! zero $end
    $upscope $end
    $scope module control_alu $end
     $var wire  4 X ALUOp [3:0] $end
     $var wire  3 : ALUcntrl [2:0] $end
     $var wire  3 / funct3 [2:0] $end
     $var wire  7 0 funct7 [6:0] $end
    $upscope $end
    $scope module control_branch $end
     $var wire  1 P Branch $end
     $var wire  1 %! branch_taken $end
     $var wire  3 = funct3 [2:0] $end
     $var wire  1 B! sign $end
     $var wire  1 A zero $end
    $upscope $end
    $scope module control_bypass_ex $end
     $var wire  2 Y bypassA [1:0] $end
     $var wire  2 Z bypassB [1:0] $end
     $var wire  5 ? exmem_rd [4:0] $end
     $var wire  1 D exmem_regwrite $end
     $var wire  5 3 idex_rs1 [4:0] $end
     $var wire  5 2 idex_rs2 [4:0] $end
     $var wire  5 G memwb_rd [4:0] $end
     $var wire  1 J memwb_regwrite $end
    $upscope $end
    $scope module control_main $end
     $var wire  1 6! ALUSrc $end
     $var wire  3 @! ALUcntrl [2:0] $end
     $var wire  1 :! Branch $end
     $var wire  1 9! Jump $end
     $var wire  1 A! JumpJALR $end
     $var wire  1 3! MemRead $end
     $var wire  1 5! MemToReg $end
     $var wire  1 4! MemWrite $end
     $var wire  1 2! RegDst $end
     $var wire  1 8! RegWrite $end
     $var wire  1 $! inA_is_PC $end
     $var wire  7 Q opcode [6:0] $end
    $upscope $end
    $scope module control_stall_id $end
     $var wire  1 D EXMEM_RegWrite $end
     $var wire  1 < IDEX_RegWrite $end
     $var wire  1 9! Jump $end
     $var wire  1 J MEMWB_RegWrite $end
     $var wire  1 7! PCSrc $end
     $var wire  1 =! bubble_exmem $end
     $var wire  1 <! bubble_idex $end
     $var wire  1 ;! bubble_ifid $end
     $var wire  1 O! bubble_memwb $end
     $var wire  5 ? exmem_rd [4:0] $end
     $var wire  1 &! idex_memread $end
     $var wire  5 4 idex_rd [4:0] $end
     $var wire  5 2 idex_rt [4:0] $end
     $var wire  5 V ifid_rd [4:0] $end
     $var wire  5 T ifid_rs [4:0] $end
     $var wire  5 U ifid_rt [4:0] $end
     $var wire  5 G memwb_rd [4:0] $end
     $var wire  1 P! write_exmem $end
     $var wire  1 P! write_idex $end
     $var wire  1 >! write_ifid $end
     $var wire  1 P! write_memwb $end
     $var wire  1 ?! write_pc $end
    $upscope $end
    $scope module cpu_DMem $end
     $var wire 15 C! addr [14:0] $end
     $var wire  1 D! clock $end
     $var wire 32 )! din [31:0] $end
     $var wire 32 L! dout [31:0] $end
     $var wire  1 *! ren $end
     $var wire  1 E! reset $end
     $var wire  1 +! wen $end
    $upscope $end
    $scope module cpu_IMem $end
     $var wire 14 ` addr [13:0] $end
     $var wire  1 D! clock $end
     $var wire 32 Q! din [31:0] $end
     $var wire 32 I! dout [31:0] $end
     $var wire  1 >! ren $end
     $var wire  1 E! reset $end
     $var wire  1 O! wen $end
    $upscope $end
    $scope module cpu_alu $end
     $var wire 32 R! N [31:0] $end
     $var wire 32 ,! inA [31:0] $end
     $var wire 32 -! inB [31:0] $end
     $var wire  4 X op [3:0] $end
     $var wire 32 .! out [31:0] $end
     $var wire 32 .! out_val [31:0] $end
     $var wire  1 1! zero $end
    $upscope $end
    $scope module cpu_regs $end
     $var wire  1 D! clock $end
     $var wire 32 b data(0) [31:0] $end
     $var wire 32 c data(1) [31:0] $end
     $var wire 32 l data(10) [31:0] $end
     $var wire 32 m data(11) [31:0] $end
     $var wire 32 n data(12) [31:0] $end
     $var wire 32 o data(13) [31:0] $end
     $var wire 32 p data(14) [31:0] $end
     $var wire 32 q data(15) [31:0] $end
     $var wire 32 r data(16) [31:0] $end
     $var wire 32 s data(17) [31:0] $end
     $var wire 32 t data(18) [31:0] $end
     $var wire 32 u data(19) [31:0] $end
     $var wire 32 d data(2) [31:0] $end
     $var wire 32 v data(20) [31:0] $end
     $var wire 32 w data(21) [31:0] $end
     $var wire 32 x data(22) [31:0] $end
     $var wire 32 y data(23) [31:0] $end
     $var wire 32 z data(24) [31:0] $end
     $var wire 32 { data(25) [31:0] $end
     $var wire 32 | data(26) [31:0] $end
     $var wire 32 } data(27) [31:0] $end
     $var wire 32 ~ data(28) [31:0] $end
     $var wire 32 !! data(29) [31:0] $end
     $var wire 32 e data(3) [31:0] $end
     $var wire 32 "! data(30) [31:0] $end
     $var wire 32 #! data(31) [31:0] $end
     $var wire 32 f data(4) [31:0] $end
     $var wire 32 g data(5) [31:0] $end
     $var wire 32 h data(6) [31:0] $end
     $var wire 32 i data(7) [31:0] $end
     $var wire 32 j data(8) [31:0] $end
     $var wire 32 k data(9) [31:0] $end
     $var wire 32 a i [31:0] $end
     $var wire  5 T raA [4:0] $end
     $var wire  5 U raB [4:0] $end
     $var wire 32 + rdA [31:0] $end
     $var wire 32 , rdB [31:0] $end
     $var wire  1 E! reset $end
     $var wire  5 G wa [4:0] $end
     $var wire 32 L wd [31:0] $end
     $var wire  1 J wen $end
    $upscope $end
    $scope module mem_read_selector $end
     $var wire 32 F DMemOut [31:0] $end
     $var wire  3 > mem_select [2:0] $end
     $var wire 32 K out [31:0] $end
    $upscope $end
    $scope module mem_write_selector $end
     $var wire 32 C ALUin [31:0] $end
     $var wire  3 = mem_select [2:0] $end
     $var wire 32 )! out [31:0] $end
    $upscope $end
   $upscope $end
  $upscope $end
 $upscope $end
$enddefinitions $end


#0
b00000000000000000000000000000000 #
b00000000000000000000000000000000 $
b00000000000000000000000000000000 %
b00000000000000000000000000000000 &
b00000000000000000000000000000000 '
b00000000000000000000000000000000 (
b00000000000000000000000000000000 )
b00000000000000000000000000000000 *
b00000000000000000000000000000000 +
b00000000000000000000000000000000 ,
b00000000000000000000000000000000 -
b00000000000000000000000000000000 .
b000 /
b0000000 0
b00000000000000000000000000000000 1
b00000 2
b00000 3
b00000 4
05
06
07
08
09
b000 :
0;
0<
b000 =
b000 >
b00000 ?
b00000000000000000000000000000000 @
0A
0B
b00000000000000000000000000000000 C
0D
0E
b00000000000000000000000000000000 F
b00000 G
b00000000000000000000000000000000 H
0I
0J
b00000000000000000000000000000000 K
b00000000000000000000000000000000 L
b00000000000000000000000000000100 M
b00000000000000000000000000000000 N
0O
0P
b0000000 Q
b000 R
b0000000 S
b00000 T
b00000 U
b00000 V
b00000 W
b0000 X
b00 Y
b00 Z
b00000000000000000000000000000000 [
b00000000000000000000000000000000 \
b00000000000000000000000000000000 ]
b00000000000000000000000000000000 ^
b00000000000000000000000000000000 _
b00000000000000 `
b00000000000000000000000000000000 a
b00000000000000000000000000000000 b
b00000000000000000000000000000000 c
b00000000000000000000000000000000 d
b00000000000000000000000000000000 e
b00000000000000000000000000000000 f
b00000000000000000000000000000000 g
b00000000000000000000000000000000 h
b00000000000000000000000000000000 i
b00000000000000000000000000000000 j
b00000000000000000000000000000000 k
b00000000000000000000000000000000 l
b00000000000000000000000000000000 m
b00000000000000000000000000000000 n
b00000000000000000000000000000000 o
b00000000000000000000000000000000 p
b00000000000000000000000000000000 q
b00000000000000000000000000000000 r
b00000000000000000000000000000000 s
b00000000000000000000000000000000 t
b00000000000000000000000000000000 u
b00000000000000000000000000000000 v
b00000000000000000000000000000000 w
b00000000000000000000000000000000 x
b00000000000000000000000000000000 y
b00000000000000000000000000000000 z
b00000000000000000000000000000000 {
b00000000000000000000000000000000 |
b00000000000000000000000000000000 }
b00000000000000000000000000000000 ~
b00000000000000000000000000000000 !!
b00000000000000000000000000000000 "!
b00000000000000000000000000000000 #!
0$!
0%!
0&!
0'!
b00000000000000000000000000000000 (!
b00000000000000000000000000000000 )!
0*!
0+!
b00000000000000000000000000000000 ,!
b00000000000000000000000000000000 -!
b00000000000000000000000000000000 .!
b00000000000000000000000000000000 /!
b00000000000000000000000000000000 0!
11!
02!
03!
04!
05!
06!
07!
08!
09!
0:!
0;!
0<!
0=!
1>!
1?!
b000 @!
0A!
0B!
b000000000000000 C!
0D!
1E!
0F!
b00000000000000000000000000000000 G!
b00000000000000000000000000000000 H!
b00000000000100000000000010010011 I!
b00000000000000000000000000000000 J!
b00000000000000000000000000000000 K!
b00000000000000000000000000000000 L!
b00000000000000000000000000000100 M!
1N!
0O!
1P!
b00000000000000000000000000000000 Q!
b00000000000000000000000000100000 R!
b0000 S!
#1
b00000000000000000000000000000100 #
b00000000000000000000000000000100 '
b00000000000100000000000010010011 (
b00000000000000000000000000000001 *
1A
b00000000000000000000000000001000 M
b00000000000000000000000000000001 N
b0010011 Q
b00001 U
b00001 V
b00000000000000000000000000000001 [
b00000000000000000000000000000001 \
b00000000000000000000100000000000 ]
b00000000000100000000000000000000 ^
b00000000000000000000100000000000 _
b00000000000001 `
12!
16!
18!
b101 @!
1D!
b00000000000000000000000100010011 I!
b00000000000000000000000000001000 M!
#2
0D!
#3
b00000000000000000000000000001000 #
b00000000000000000000000000000100 $
b00000000000000000000000000001000 '
b00000000000000000000000100010011 (
b00000000000000000000000000000001 )
b00000000000000000000000000000000 *
b00000000000000000000000000000100 1
b00001 2
b00001 4
15
16
b101 :
1<
b00000000000000000000000000001100 M
b00000000000000000000000000000100 N
b00000 U
b00010 V
b00001 W
b00000000000000000000000000000000 [
b00000000000000000000000000000010 \
b00000000000000000000000000000010 ]
b00000000000000000000000000000000 ^
b00000000000000000000000000000000 _
b00000000000010 `
b00000000000000000000000000000001 -!
b00000000000000000000000000000001 .!
01!
1D!
b00000000001000001001000110110011 I!
b00000000000000000000000000000001 K!
b00000000000000000000000000001100 M!
0N!
#4
0D!
#5
b00000000010000000000000000000000 #
b00000000000000000000000000000000 $
b00000000000000000000000000000000 '
b00000000000000000000000000000000 (
b00000000000000000000000000000000 )
b00000000000000000000000000000000 1
b00000 2
b00000 4
05
06
b000 :
0<
b111 =
b111 >
0A
b00000000010000000000000000000100 M
b00000000000000000000000000000000 N
b0000000 Q
b00000 V
b00000 W
b00000000000000000000000000000000 \
b00000000000000000000000000000000 ]
b00000000000000 `
b00000000000000000000000000100000 a
b00000000000000000000000000000001 c
b00000000000000000000000000000010 d
b00000000000000000000000000000011 e
b00000000000000000000000000000100 f
b00000000000000000000000000000101 g
b00000000000000000000000000000110 h
b00000000000000000000000000000111 i
b00000000000000000000000000001000 j
b00000000000000000000000000001001 k
b00000000000000000000000000001010 l
b00000000000000000000000000001011 m
b00000000000000000000000000001100 n
b00000000000000000000000000001101 o
b00000000000000000000000000001110 p
b00000000000000000000000000001111 q
b00000000000000000000000000010000 r
b00000000000000000000000000010001 s
b00000000000000000000000000010010 t
b00000000000000000000000000010011 u
b00000000000000000000000000010100 v
b00000000000000000000000000010101 w
b00000000000000000000000000010110 x
b00000000000000000000000000010111 y
b00000000000000000000000000011000 z
b00000000000000000000000000011001 {
b00000000000000000000000000011010 |
b00000000000000000000000000011011 }
b00000000000000000000000000011100 ~
b00000000000000000000000000011101 !!
b00000000000000000000000000011110 "!
b00000000000000000000000000011111 #!
b00000000000000000000000000000000 -!
b00000000000000000000000000000000 .!
11!
02!
06!
08!
b000 @!
1D!
0E!
b00000000000000000000000000000000 I!
b00000000000000000000000000000000 K!
b00000000010000000000000000000100 M!
1N!
#6
0D!
#7
1D!
#8
0D!
#9
1D!
#10
0D!
1E!
b00000000000100000000000010010011 I!
#11
b00000000010000000000000000000100 #
b00000000010000000000000000000000 $
b00000000010000000000000000000100 '
b00000000000100000000000010010011 (
b00000000000000000000000000000001 *
b00000000000000000000000000000001 ,
b000 =
1A
b00000000010000000000000000001000 M
b00000000010000000000000000000001 N
b0010011 Q
b00001 U
b00001 V
b00000000000000000000000000000001 [
b00000000000000000000000000000001 \
b00000000000000000000100000000000 ]
b00000000000100000000000000000000 ^
b00000000000000000000100000000000 _
b00000000000001 `
12!
16!
18!
b101 @!
1D!
b00000000000000000000000100010011 I!
b00000000010000000000000000001000 M!
#12
0D!
#13
b00000000010000000000000000001000 #
b00000000010000000000000000000100 $
b00000000010000000000000000000000 %
b00000000010000000000000000001000 '
b00000000000000000000000100010011 (
b00000000000000000000000000000001 )
b00000000000000000000000000000000 *
b00000000000000000000000000000000 ,
b00000000000000000000000000000001 .
b00000000010000000000000000000100 1
b00001 2
b00001 4
15
16
b101 :
1<
b000 >
b00000000010000000000000000001100 M
b00000000010000000000000000000100 N
b00000 U
b00010 V
b00001 W
b00000000000000000000000000000000 [
b00000000000000000000000000000010 \
b00000000000000000000000000000010 ]
b00000000000000000000000000000000 ^
b00000000000000000000000000000000 _
b00000000000010 `
b00000000000000000000000000000001 -!
b00000000000000000000000000000001 .!
b00000000000000000000000000000001 0!
01!
1D!
b00000000001000001001000110110011 I!
b00000000010000000000000000000000 J!
b00000000010000000000000000000001 K!
b00000000010000000000000000001100 M!
0N!
#14
0D!
#15
b00000000010000000000000000001100 #
b00000000010000000000000000001000 $
b00000000010000000000000000000100 %
b00000000010000000000000000000000 &
b00000000010000000000000000001100 '
b00000000001000001001000110110011 (
b00000000000000000000000000000000 )
b00000000000000000000000000000001 +
b00000000000000000000000000000010 ,
b00000000000000000000000000000000 .
b00000000010000000000000000001000 1
b00000 2
b00010 4
b00001 ?
b00000000010000000000000000000001 @
0A
b00000000000000000000000000000001 C
1D
b00000000010000000000000000010000 M
b00000000010000000000000000001000 N
b0110011 Q
b001 R
b00001 T
b00010 U
b00011 V
b00010 W
b00000000000000000000000000000010 [
b00000000000000000000000000000011 \
b00000000000000000000100000000010 ]
b00000000001000001001000000000000 ^
b00000000000000001001000000000010 _
b00000000000011 `
b00000000000000000000000000000001 (!
b00000000000000000000000000000001 )!
b00000000000000000000000000000000 -!
b00000000000000000000000000000000 .!
b00000000000000000000000000000000 0!
11!
06!
b000 @!
1D!
b00000000000000000000000000000001 G!
b00000000000000000000000000000001 H!
b00000000000100000000111010010011 I!
b00000000010000000000000000000100 J!
b00000000010000000000000000000100 K!
b00000000010000000000000000010000 M!
#16
0D!
#17
b00000000010000000000000000010000 #
b00000000010000000000000000001100 $
b00000000010000000000000000001000 %
b00000000010000000000000000000100 &
b00000000010000000000000000010000 '
b00000000000100000000111010010011 (
b00000000000000000000000000000001 *
b00000000000000000000000000000000 +
b00000000000000000000000000000001 ,
b00000000000000000000000000000001 -
b00000000000000000000000000000010 .
b001 /
b00000000010000000000000000001100 1
b00010 2
b00001 3
b00011 4
06
b000 :
b00010 ?
b00000000010000000000000000000100 @
1A
b00000000000000000000000000000000 C
b00001 G
b00000000000000000000000000000001 H
1J
b00000000000000000000000000000001 L
b00000000010000000000000000010100 M
b00000000010000000000000000001101 N
b0010011 Q
b000 R
b00000 T
b00001 U
b11101 V
b00011 W
b0101 X
b01 Y
b10 Z
b00000000000000000000000000000001 [
b00000000000000000000000000011101 \
b00000000000000000000100000011100 ]
b00000000000100000000000000000000 ^
b00000000000000000000100000000000 _
b00000000000100 `
b00000000000000000000000000000000 (!
b00000000000000000000000000000000 )!
b00000000000000000000000000000001 ,!
b00000000000000000000000000000001 .!
b00000000000000000000000000000001 /!
01!
16!
b101 @!
1D!
b00000000000000000000000000000000 G!
b00000000000000000000000000000000 H!
b00000000001000000000111000010011 I!
b00000000010000000000000000001000 J!
b00000000010000000000000000001000 K!
b00000000010000000000000000010100 M!
#18
0D!
#19
b00000000010000000000000000010100 #
b00000000010000000000000000010000 $
b00000000010000000000000000001100 %
b00000000010000000000000000001000 &
b00000000010000000000000000010100 '
b00000000001000000000111000010011 (
b00000000000000000000000000000001 )
b00000000000000000000000000000010 *
b00000000000000000000000000000000 ,
b00000000000000000000000000000000 -
b00000000000000000000000000000001 .
b000 /
b00000000010000000000000000010000 1
b00001 2
b00000 3
b11101 4
16
b101 :
b001 =
b00011 ?
b00000000010000000000000000001000 @
0A
b00010 G
b00000000000000000000000000000000 H
b00000000000000000000000000000000 L
b00000000010000000000000000011000 M
b00000000010000000000000000010010 N
b00010 U
b11100 V
b11101 W
b0000 X
b00 Y
b00 Z
b00000000000000000000000000000010 [
b00000000000000000000000000011100 \
b00000000000000000000000000011100 ]
b00000000001000000000000000000000 ^
b00000000000000000000000000000010 _
b00000000000101 `
b00000000000000000000000000000001 (!
b00000000000000000000000000000000 ,!
b00000000000000000000000000000001 -!
b00000000000000000000000000000000 /!
b00000000000000000000000000000001 0!
1D!
b00000000000000000000000000000001 G!
b01010011110100011001111001100011 I!
b00000000010000000000000000001100 J!
b00000000010000000000000000001101 K!
b00000000010000000000000000011000 M!
#20
0D!
#21
b00000000010000000000000000011000 #
b00000000010000000000000000010100 $
b00000000010000000000000000010000 %
b00000000010000000000000000001100 &
b00000000010000000000000000011000 '
b01010011110100011001111001100011 (
b00000000000000000000000000000010 )
b00000000000000000000010100111100 *
b00000000000000000000000000000001 +
b00000000000000000000000000011101 ,
b00000000000000000000000000000000 .
b00000000010000000000000000010100 1
b00010 2
b11100 4
b000 =
b001 >
b11101 ?
b00000000010000000000000000001101 @
b00000000000000000000000000000001 C
b00011 G
b00000000000000000000000000000001 H
b00000000000000000000000000000001 L
b00000000010000000000000000011100 M
b00000000010000000000010101010000 N
b1100011 Q
b001 R
b0101001 S
b00011 T
b11101 U
b11100 W
b00000000000000000000010100111101 [
b00000000000000000000010100111100 \
b00000000000000000000010100111100 ]
b01010011110100011001000000000000 ^
b00000000000000011001110100111100 _
b00000000000110 `
b00000000000000000000000000000000 d
b00000000000000000000000000000001 )!
b00000000000000000000000000000010 -!
b00000000000000000000000000000010 .!
b00000000000000000000000000000000 0!
02!
06!
08!
1:!
b010 @!
1D!
b00000000000000000000000000000001 H!
b00000000000100000000000010010011 I!
b00000000010000000000000000010000 J!
b00000000010000000000000000010010 K!
b00000000010000000000000000011100 M!
#22
0D!
#23
b00000000010000000000000000011100 #
b00000000010000000000000000011000 $
b00000000010000000000000000010100 %
b00000000010000000000000000010000 &
b00000000010000000000000000011100 '
b00000000000100000000000010010011 (
b00000000000000000000010100111100 )
b00000000000000000000000000000001 *
b00000000000000000000000000000000 +
b00000000000000000000000000000001 ,
b00000000000000000000000000000001 -
b00000000000000000000000000011101 .
b001 /
b0101001 0
b00000000010000000000000000011000 1
b11101 2
b00011 3
05
06
b010 :
0<
b000 >
b11100 ?
b00000000010000000000000000010010 @
b00000000000000000000000000000000 C
b11101 G
b00000000010000000000000000100000 M
b00000000010000000000000000011001 N
1O
b0010011 Q
b000 R
b0000000 S
b00000 T
b00001 U
b00001 V
b11101 W
b0001 X
b01 Z
b00000000000000000000000000000001 [
b00000000000000000000000000000001 \
b00000000000000000000100000000000 ]
b00000000000100000000000000000000 ^
b00000000000000000000100000000000 _
b00000000000111 `
b00000000000000000000000000000001 e
b00000000000000000000000000000010 (!
b00000000000000000000000000000000 )!
b00000000000000000000000000000001 ,!
b00000000000000000000000000000001 -!
b00000000000000000000000000000000 .!
b00000000000000000000000000000001 /!
b00000000000000000000000000000001 0!
11!
12!
16!
18!
0:!
b101 @!
1D!
b00000000000000000000000000000010 G!
b00000000000000000000000000000000 H!
b00000000000100000000000100010011 I!
b00000000010000000000000000010100 J!
b00000000010000000000010101010000 K!
b00000000010000000000000000100000 M!
#24
0D!
#25
b00000000010000000000000000100000 #
b00000000010000000000000000011100 $
b00000000010000000000000000011000 %
b00000000010000000000000000010100 &
b00000000010000000000000000100000 '
b00000000000100000000000100010011 (
b00000000000000000000000000000001 )
b00000000000000000000000000000000 -
b00000000000000000000000000000001 .
b000 /
b0000000 0
b00000000010000000000000000011100 1
b00001 2
b00000 3
b00001 4
15
16
b101 :
1<
b001 =
b11101 ?
b00000000010000000000010101010000 @
1A
b00000000000000000000000000000001 C
0D
b11100 G
b00000000000000000000000000000010 H
b00000000000000000000000000000010 L
b00000000010000000000000000100100 M
b00000000010000000000000000011101 N
0O
1P
b00010 V
b00001 W
b0000 X
b00 Z
b00000000000000000000000000000010 \
b00000000000000000000000000000010 ]
b00000000001000 `
b00000000000000000000000000000001 !!
b00000000000000000000000000000000 (!
b00000000000000000000000000000001 )!
b00000000000000000000000000000000 ,!
b00000000000000000000000000000001 .!
b00000000000000000000000000000000 /!
01!
1D!
b00000000000000000000000000000000 G!
b00000000000000000000000000000001 H!
b00000000001000001001000110110011 I!
b00000000010000000000000000011000 J!
b00000000010000000000000000011001 K!
b00000000010000000000000000100100 M!
#26
0D!
#27
b00000000010000000000000000100100 #
b00000000010000000000000000100000 $
b00000000010000000000000000011100 %
b00000000010000000000000000011000 &
b00000000010000000000000000100100 '
b00000000001000001001000110110011 (
b00000000000000000000000000000000 *
b00000000000000000000000000000001 +
b00000000000000000000000000000000 ,
b00000000010000000000000000100000 1
b00010 4
b000 =
b001 >
b00001 ?
b00000000010000000000000000011001 @
0A
1D
b11101 G
b00000000000000000000000000000000 H
0J
b00000000000000000000000000000000 L
b00000000010000000000000000101000 M
b00000000010000000000000000100000 N
0P
b0110011 Q
b001 R
b00001 T
b00010 U
b00011 V
b00010 W
b10 Z
b00000000000000000000000000000010 [
b00000000000000000000000000000011 \
b00000000000000000000100000000010 ]
b00000000001000001001000000000000 ^
b00000000000000001001000000000010 _
b00000000001001 `
b00000000000000000000000000000010 ~
b00000000000000000000000000000001 (!
06!
b000 @!
1D!
b00000000000000000000000000000001 G!
b00000000001000000000111010010011 I!
b00000000010000000000000000011100 J!
b00000000010000000000000000011101 K!
b00000000010000000000000000101000 M!
#28
0D!
#29
b00000000010000000000000000101000 #
b00000000010000000000000000100100 $
b00000000010000000000000000100000 %
b00000000010000000000000000011100 &
b00000000010000000000000000101000 '
b00000000001000000000111010010011 (
b00000000000000000000000000000000 )
b00000000000000000000000000000010 *
b00000000000000000000000000000000 +
b00000000000000000000000000000001 -
b00000000000000000000000000000000 .
b001 /
b00000000010000000000000000100100 1
b00010 2
b00001 3
b00011 4
06
b000 :
b000 >
b00010 ?
b00000000010000000000000000011101 @
b00001 G
b00000000000000000000000000000001 H
1J
b00000000000000000000000000000001 L
b00000000010000000000000000101100 M
b00000000010000000000000000100110 N
b0010011 Q
b000 R
b00000 T
b11101 V
b00011 W
b0101 X
b01 Y
b00000000000000000000000000011101 \
b00000000000000000000100000011100 ]
b00000000001000000000000000000000 ^
b00000000000000000000000000000010 _
b00000000001010 `
b00000000000000000000000000000001 ,!
b00000000000000000000000000000010 .!
b00000000000000000000000000000001 /!
16!
b101 @!
1D!
b00000000001100000000111000010011 I!
b00000000010000000000000000100000 J!
b00000000010000000000000000100000 K!
b00000000010000000000000000101100 M!
#30
0D!
#31
b00000000010000000000000000101100 #
b00000000010000000000000000101000 $
b00000000010000000000000000100100 %
b00000000010000000000000000100000 &
b00000000010000000000000000101100 '
b00000000001100000000111000010011 (
b00000000000000000000000000000010 )
b00000000000000000000000000000011 *
b00000000000000000000000000000001 ,
b00000000000000000000000000000000 -
b000 /
b00000000010000000000000000101000 1
b00000 3
b11101 4
16
b101 :
b001 =
b00011 ?
b00000000010000000000000000100000 @
b00010 G
b00000000010000000000000000110000 M
b00000000010000000000000000101011 N
b00011 U
b11100 V
b11101 W
b0000 X
b00 Y
b01 Z
b00000000000000000000000000000011 [
b00000000000000000000000000011100 \
b00000000000000000000000000011100 ]
b00000000001100000000000000000000 ^
b00000000000000000000100000000010 _
b00000000001011 `
b00000000000000000000000000000010 (!
b00000000000000000000000000000000 ,!
b00000000000000000000000000000010 -!
b00000000000000000000000000000000 /!
1D!
b00000000000000000000000000000010 G!
b01010011110100011001001001100011 I!
b00000000010000000000000000100100 J!
b00000000010000000000000000100110 K!
b00000000010000000000000000110000 M!
#32
0D!
